LAMMPS data file from restart file: timestep = 0, procs = 1

1000 atoms
1000 bonds
1000 angles

4 atom types
1 bond types
1 angle types

-50 50 xlo xhi 
-50 50 ylo yhi 
-50 50 zlo zhi 

Masses 

 1 1 
 2 1 
 3 1 
 4 1 

Atoms 

1 1 1 50 0 0 0 0 0 
2 1 1 49.9961 0.628302 0 0 0 0 
3 1 1 49.9842 1.2565 0 0 0 0 
4 1 1 49.9645 1.88451 0 0 0 0 
5 1 1 49.9368 2.51222 0 0 0 0 
6 1 1 49.9013 3.13953 0 0 0 0 
7 1 1 49.8579 3.76634 0 0 0 0 
8 1 1 49.8067 4.39256 0 0 0 0 
9 1 1 49.7476 5.01809 0 0 0 0 
10 1 1 49.6806 5.64282 0 0 0 0 
11 1 1 49.6057 6.26666 0 0 0 0 
12 1 1 49.5231 6.88951 0 0 0 0 
13 1 1 49.4326 7.51128 0 0 0 0 
14 1 1 49.3343 8.13186 0 0 0 0 
15 1 1 49.2282 8.75115 0 0 0 0 
16 1 1 49.1144 9.36907 0 0 0 0 
17 1 1 48.9928 9.9855 0 0 0 0 
18 1 1 48.8634 10.6004 0 0 0 0 
19 1 1 48.7263 11.2135 0 0 0 0 
20 1 1 48.5816 11.8249 0 0 0 0 
21 1 1 48.4292 12.4345 0 0 0 0 
22 1 1 48.2691 13.0421 0 0 0 0 
23 1 1 48.1014 13.6476 0 0 0 0 
24 1 1 47.9261 14.251 0 0 0 0 
25 1 1 47.7432 14.8521 0 0 0 0 
26 1 1 47.5528 15.4508 0 0 0 0 
27 1 1 47.3549 16.0472 0 0 0 0 
28 1 1 47.1495 16.641 0 0 0 0 
29 1 1 46.9367 17.2321 0 0 0 0 
30 1 1 46.7164 17.8206 0 0 0 0 
31 1 1 46.4888 18.4062 0 0 0 0 
32 1 1 46.2539 18.989 0 0 0 0 
33 1 1 46.0116 19.5687 0 0 0 0 
34 1 1 45.7621 20.1453 0 0 0 0 
35 1 1 45.5053 20.7188 0 0 0 0 
36 1 1 45.2414 21.289 0 0 0 0 
37 1 1 44.9703 21.8558 0 0 0 0 
38 1 1 44.6921 22.4192 0 0 0 0 
39 1 1 44.4068 22.979 0 0 0 0 
40 1 1 44.1146 23.5352 0 0 0 0 
41 1 1 43.8153 24.0877 0 0 0 0 
42 1 1 43.5092 24.6364 0 0 0 0 
43 1 1 43.1962 25.1812 0 0 0 0 
44 1 1 42.8763 25.722 0 0 0 0 
45 1 1 42.5497 26.2587 0 0 0 0 
46 1 1 42.2164 26.7913 0 0 0 0 
47 1 1 41.8764 27.3197 0 0 0 0 
48 1 1 41.5298 27.8438 0 0 0 0 
49 1 1 41.1766 28.3634 0 0 0 0 
50 1 1 40.817 28.8786 0 0 0 0 
51 1 1 40.4508 29.3893 0 0 0 0 
52 1 1 40.0783 29.8952 0 0 0 0 
53 1 1 39.6995 30.3965 0 0 0 0 
54 1 1 39.3144 30.893 0 0 0 0 
55 1 1 38.9231 31.3846 0 0 0 0 
56 1 1 38.5257 31.8712 0 0 0 0 
57 1 1 38.1221 32.3528 0 0 0 0 
58 1 1 37.7126 32.8293 0 0 0 0 
59 1 1 37.2971 33.3006 0 0 0 0 
60 1 1 36.8757 33.7666 0 0 0 0 
61 1 1 36.4484 34.2274 0 0 0 0 
62 1 1 36.0155 34.6827 0 0 0 0 
63 1 1 35.5768 35.1325 0 0 0 0 
64 1 1 35.1325 35.5768 0 0 0 0 
65 1 1 34.6827 36.0155 0 0 0 0 
66 1 1 34.2274 36.4484 0 0 0 0 
67 1 1 33.7666 36.8757 0 0 0 0 
68 1 1 33.3006 37.2971 0 0 0 0 
69 1 1 32.8293 37.7126 0 0 0 0 
70 1 1 32.3528 38.1221 0 0 0 0 
71 1 1 31.8712 38.5257 0 0 0 0 
72 1 1 31.3846 38.9231 0 0 0 0 
73 1 1 30.893 39.3144 0 0 0 0 
74 1 1 30.3965 39.6995 0 0 0 0 
75 1 1 29.8952 40.0783 0 0 0 0 
76 1 1 29.3893 40.4508 0 0 0 0 
77 1 1 28.8786 40.817 0 0 0 0 
78 1 1 28.3634 41.1766 0 0 0 0 
79 1 1 27.8438 41.5298 0 0 0 0 
80 1 1 27.3197 41.8764 0 0 0 0 
81 1 1 26.7913 42.2164 0 0 0 0 
82 1 1 26.2587 42.5497 0 0 0 0 
83 1 1 25.722 42.8763 0 0 0 0 
84 1 1 25.1812 43.1962 0 0 0 0 
85 1 1 24.6364 43.5092 0 0 0 0 
86 1 1 24.0877 43.8153 0 0 0 0 
87 1 1 23.5352 44.1146 0 0 0 0 
88 1 1 22.979 44.4068 0 0 0 0 
89 1 1 22.4192 44.6921 0 0 0 0 
90 1 1 21.8558 44.9703 0 0 0 0 
91 1 1 21.289 45.2414 0 0 0 0 
92 1 1 20.7188 45.5053 0 0 0 0 
93 1 1 20.1453 45.7621 0 0 0 0 
94 1 1 19.5687 46.0116 0 0 0 0 
95 1 1 18.989 46.2539 0 0 0 0 
96 1 1 18.4062 46.4888 0 0 0 0 
97 1 1 17.8206 46.7164 0 0 0 0 
98 1 1 17.2321 46.9367 0 0 0 0 
99 1 1 16.641 47.1495 0 0 0 0 
100 1 1 16.0472 47.3549 0 0 0 0 
101 1 1 15.4508 47.5528 0 0 0 0 
102 1 1 14.8521 47.7432 0 0 0 0 
103 1 1 14.251 47.9261 0 0 0 0 
104 1 1 13.6476 48.1014 0 0 0 0 
105 1 1 13.0421 48.2691 0 0 0 0 
106 1 1 12.4345 48.4292 0 0 0 0 
107 1 1 11.8249 48.5816 0 0 0 0 
108 1 1 11.2135 48.7263 0 0 0 0 
109 1 1 10.6004 48.8634 0 0 0 0 
110 1 1 9.9855 48.9928 0 0 0 0 
111 1 1 9.36907 49.1144 0 0 0 0 
112 1 1 8.75115 49.2282 0 0 0 0 
113 1 1 8.13186 49.3343 0 0 0 0 
114 1 1 7.51128 49.4326 0 0 0 0 
115 1 1 6.88951 49.5231 0 0 0 0 
116 1 1 6.26666 49.6057 0 0 0 0 
117 1 1 5.64282 49.6806 0 0 0 0 
118 1 1 5.01809 49.7476 0 0 0 0 
119 1 1 4.39256 49.8067 0 0 0 0 
120 1 1 3.76634 49.8579 0 0 0 0 
121 1 1 3.13953 49.9013 0 0 0 0 
122 1 1 2.51222 49.9368 0 0 0 0 
123 1 1 1.88451 49.9645 0 0 0 0 
124 1 1 1.2565 49.9842 0 0 0 0 
125 1 1 0.628302 49.9961 0 0 0 0 
126 1 1 3.06162e-15 50 0 0 0 0 
127 1 1 -0.628302 49.9961 0 0 0 0 
128 1 1 -1.2565 49.9842 0 0 0 0 
129 1 1 -1.88451 49.9645 0 0 0 0 
130 1 1 -2.51222 49.9368 0 0 0 0 
131 1 1 -3.13953 49.9013 0 0 0 0 
132 1 1 -3.76634 49.8579 0 0 0 0 
133 1 1 -4.39256 49.8067 0 0 0 0 
134 1 1 -5.01809 49.7476 0 0 0 0 
135 1 1 -5.64282 49.6806 0 0 0 0 
136 1 1 -6.26666 49.6057 0 0 0 0 
137 1 1 -6.88951 49.5231 0 0 0 0 
138 1 1 -7.51128 49.4326 0 0 0 0 
139 1 1 -8.13186 49.3343 0 0 0 0 
140 1 1 -8.75115 49.2282 0 0 0 0 
141 1 1 -9.36907 49.1144 0 0 0 0 
142 1 1 -9.9855 48.9928 0 0 0 0 
143 1 1 -10.6004 48.8634 0 0 0 0 
144 1 1 -11.2135 48.7263 0 0 0 0 
145 1 1 -11.8249 48.5816 0 0 0 0 
146 1 1 -12.4345 48.4292 0 0 0 0 
147 1 1 -13.0421 48.2691 0 0 0 0 
148 1 1 -13.6476 48.1014 0 0 0 0 
149 1 1 -14.251 47.9261 0 0 0 0 
150 1 1 -14.8521 47.7432 0 0 0 0 
151 1 1 -15.4508 47.5528 0 0 0 0 
152 1 1 -16.0472 47.3549 0 0 0 0 
153 1 1 -16.641 47.1495 0 0 0 0 
154 1 1 -17.2321 46.9367 0 0 0 0 
155 1 1 -17.8206 46.7164 0 0 0 0 
156 1 1 -18.4062 46.4888 0 0 0 0 
157 1 1 -18.989 46.2539 0 0 0 0 
158 1 1 -19.5687 46.0116 0 0 0 0 
159 1 1 -20.1453 45.7621 0 0 0 0 
160 1 1 -20.7188 45.5053 0 0 0 0 
161 1 1 -21.289 45.2414 0 0 0 0 
162 1 1 -21.8558 44.9703 0 0 0 0 
163 1 1 -22.4192 44.6921 0 0 0 0 
164 1 1 -22.979 44.4068 0 0 0 0 
165 1 1 -23.5352 44.1146 0 0 0 0 
166 1 1 -24.0877 43.8153 0 0 0 0 
167 1 1 -24.6364 43.5092 0 0 0 0 
168 1 1 -25.1812 43.1962 0 0 0 0 
169 1 1 -25.722 42.8763 0 0 0 0 
170 1 1 -26.2587 42.5497 0 0 0 0 
171 1 1 -26.7913 42.2164 0 0 0 0 
172 1 1 -27.3197 41.8764 0 0 0 0 
173 1 1 -27.8438 41.5298 0 0 0 0 
174 1 1 -28.3634 41.1766 0 0 0 0 
175 1 1 -28.8786 40.817 0 0 0 0 
176 1 1 -29.3893 40.4508 0 0 0 0 
177 1 1 -29.8952 40.0783 0 0 0 0 
178 1 1 -30.3965 39.6995 0 0 0 0 
179 1 1 -30.893 39.3144 0 0 0 0 
180 1 1 -31.3846 38.9231 0 0 0 0 
181 1 1 -31.8712 38.5257 0 0 0 0 
182 1 1 -32.3528 38.1221 0 0 0 0 
183 1 1 -32.8293 37.7126 0 0 0 0 
184 1 1 -33.3006 37.2971 0 0 0 0 
185 1 1 -33.7666 36.8757 0 0 0 0 
186 1 1 -34.2274 36.4484 0 0 0 0 
187 1 1 -34.6827 36.0155 0 0 0 0 
188 1 1 -35.1325 35.5768 0 0 0 0 
189 1 1 -35.5768 35.1325 0 0 0 0 
190 1 1 -36.0155 34.6827 0 0 0 0 
191 1 1 -36.4484 34.2274 0 0 0 0 
192 1 1 -36.8757 33.7666 0 0 0 0 
193 1 1 -37.2971 33.3006 0 0 0 0 
194 1 1 -37.7126 32.8293 0 0 0 0 
195 1 1 -38.1221 32.3528 0 0 0 0 
196 1 1 -38.5257 31.8712 0 0 0 0 
197 1 1 -38.9231 31.3846 0 0 0 0 
198 1 1 -39.3144 30.893 0 0 0 0 
199 1 1 -39.6995 30.3965 0 0 0 0 
200 1 1 -40.0783 29.8952 0 0 0 0 
201 1 1 -40.4508 29.3893 0 0 0 0 
202 1 1 -40.817 28.8786 0 0 0 0 
203 1 1 -41.1766 28.3634 0 0 0 0 
204 1 1 -41.5298 27.8438 0 0 0 0 
205 1 1 -41.8764 27.3197 0 0 0 0 
206 1 1 -42.2164 26.7913 0 0 0 0 
207 1 1 -42.5497 26.2587 0 0 0 0 
208 1 1 -42.8763 25.722 0 0 0 0 
209 1 1 -43.1962 25.1812 0 0 0 0 
210 1 1 -43.5092 24.6364 0 0 0 0 
211 1 1 -43.8153 24.0877 0 0 0 0 
212 1 1 -44.1146 23.5352 0 0 0 0 
213 1 1 -44.4068 22.979 0 0 0 0 
214 1 1 -44.6921 22.4192 0 0 0 0 
215 1 1 -44.9703 21.8558 0 0 0 0 
216 1 1 -45.2414 21.289 0 0 0 0 
217 1 1 -45.5053 20.7188 0 0 0 0 
218 1 1 -45.7621 20.1453 0 0 0 0 
219 1 1 -46.0116 19.5687 0 0 0 0 
220 1 1 -46.2539 18.989 0 0 0 0 
221 1 1 -46.4888 18.4062 0 0 0 0 
222 1 1 -46.7164 17.8206 0 0 0 0 
223 1 1 -46.9367 17.2321 0 0 0 0 
224 1 1 -47.1495 16.641 0 0 0 0 
225 1 1 -47.3549 16.0472 0 0 0 0 
226 1 1 -47.5528 15.4508 0 0 0 0 
227 1 1 -47.7432 14.8521 0 0 0 0 
228 1 1 -47.9261 14.251 0 0 0 0 
229 1 1 -48.1014 13.6476 0 0 0 0 
230 1 1 -48.2691 13.0421 0 0 0 0 
231 1 1 -48.4292 12.4345 0 0 0 0 
232 1 1 -48.5816 11.8249 0 0 0 0 
233 1 1 -48.7263 11.2135 0 0 0 0 
234 1 1 -48.8634 10.6004 0 0 0 0 
235 1 1 -48.9928 9.9855 0 0 0 0 
236 1 1 -49.1144 9.36907 0 0 0 0 
237 1 1 -49.2282 8.75115 0 0 0 0 
238 1 1 -49.3343 8.13186 0 0 0 0 
239 1 1 -49.4326 7.51128 0 0 0 0 
240 1 1 -49.5231 6.88951 0 0 0 0 
241 1 1 -49.6057 6.26666 0 0 0 0 
242 1 1 -49.6806 5.64282 0 0 0 0 
243 1 1 -49.7476 5.01809 0 0 0 0 
244 1 1 -49.8067 4.39256 0 0 0 0 
245 1 1 -49.8579 3.76634 0 0 0 0 
246 1 1 -49.9013 3.13953 0 0 0 0 
247 1 1 -49.9368 2.51222 0 0 0 0 
248 1 1 -49.9645 1.88451 0 0 0 0 
249 1 1 -49.9842 1.2565 0 0 0 0 
250 1 1 -49.9961 0.628302 0 0 0 0 
251 1 1 -50 6.12323e-15 0 0 0 0 
252 1 1 -49.9961 -0.628302 0 0 0 0 
253 1 1 -49.9842 -1.2565 0 0 0 0 
254 1 1 -49.9645 -1.88451 0 0 0 0 
255 1 1 -49.9368 -2.51222 0 0 0 0 
256 1 1 -49.9013 -3.13953 0 0 0 0 
257 1 1 -49.8579 -3.76634 0 0 0 0 
258 1 1 -49.8067 -4.39256 0 0 0 0 
259 1 1 -49.7476 -5.01809 0 0 0 0 
260 1 1 -49.6806 -5.64282 0 0 0 0 
261 1 1 -49.6057 -6.26666 0 0 0 0 
262 1 1 -49.5231 -6.88951 0 0 0 0 
263 1 1 -49.4326 -7.51128 0 0 0 0 
264 1 1 -49.3343 -8.13186 0 0 0 0 
265 1 1 -49.2282 -8.75115 0 0 0 0 
266 1 1 -49.1144 -9.36907 0 0 0 0 
267 1 1 -48.9928 -9.9855 0 0 0 0 
268 1 1 -48.8634 -10.6004 0 0 0 0 
269 1 1 -48.7263 -11.2135 0 0 0 0 
270 1 1 -48.5816 -11.8249 0 0 0 0 
271 1 1 -48.4292 -12.4345 0 0 0 0 
272 1 1 -48.2691 -13.0421 0 0 0 0 
273 1 1 -48.1014 -13.6476 0 0 0 0 
274 1 1 -47.9261 -14.251 0 0 0 0 
275 1 1 -47.7432 -14.8521 0 0 0 0 
276 1 1 -47.5528 -15.4508 0 0 0 0 
277 1 1 -47.3549 -16.0472 0 0 0 0 
278 1 1 -47.1495 -16.641 0 0 0 0 
279 1 1 -46.9367 -17.2321 0 0 0 0 
280 1 1 -46.7164 -17.8206 0 0 0 0 
281 1 1 -46.4888 -18.4062 0 0 0 0 
282 1 1 -46.2539 -18.989 0 0 0 0 
283 1 1 -46.0116 -19.5687 0 0 0 0 
284 1 1 -45.7621 -20.1453 0 0 0 0 
285 1 1 -45.5053 -20.7188 0 0 0 0 
286 1 1 -45.2414 -21.289 0 0 0 0 
287 1 1 -44.9703 -21.8558 0 0 0 0 
288 1 1 -44.6921 -22.4192 0 0 0 0 
289 1 1 -44.4068 -22.979 0 0 0 0 
290 1 1 -44.1146 -23.5352 0 0 0 0 
291 1 1 -43.8153 -24.0877 0 0 0 0 
292 1 1 -43.5092 -24.6364 0 0 0 0 
293 1 1 -43.1962 -25.1812 0 0 0 0 
294 1 1 -42.8763 -25.722 0 0 0 0 
295 1 1 -42.5497 -26.2587 0 0 0 0 
296 1 1 -42.2164 -26.7913 0 0 0 0 
297 1 1 -41.8764 -27.3197 0 0 0 0 
298 1 1 -41.5298 -27.8438 0 0 0 0 
299 1 1 -41.1766 -28.3634 0 0 0 0 
300 1 1 -40.817 -28.8786 0 0 0 0 
301 1 1 -40.4508 -29.3893 0 0 0 0 
302 1 1 -40.0783 -29.8952 0 0 0 0 
303 1 1 -39.6995 -30.3965 0 0 0 0 
304 1 1 -39.3144 -30.893 0 0 0 0 
305 1 1 -38.9231 -31.3846 0 0 0 0 
306 1 1 -38.5257 -31.8712 0 0 0 0 
307 1 1 -38.1221 -32.3528 0 0 0 0 
308 1 1 -37.7126 -32.8293 0 0 0 0 
309 1 1 -37.2971 -33.3006 0 0 0 0 
310 1 1 -36.8757 -33.7666 0 0 0 0 
311 1 1 -36.4484 -34.2274 0 0 0 0 
312 1 1 -36.0155 -34.6827 0 0 0 0 
313 1 1 -35.5768 -35.1325 0 0 0 0 
314 1 1 -35.1325 -35.5768 0 0 0 0 
315 1 1 -34.6827 -36.0155 0 0 0 0 
316 1 1 -34.2274 -36.4484 0 0 0 0 
317 1 1 -33.7666 -36.8757 0 0 0 0 
318 1 1 -33.3006 -37.2971 0 0 0 0 
319 1 1 -32.8293 -37.7126 0 0 0 0 
320 1 1 -32.3528 -38.1221 0 0 0 0 
321 1 1 -31.8712 -38.5257 0 0 0 0 
322 1 1 -31.3846 -38.9231 0 0 0 0 
323 1 1 -30.893 -39.3144 0 0 0 0 
324 1 1 -30.3965 -39.6995 0 0 0 0 
325 1 1 -29.8952 -40.0783 0 0 0 0 
326 1 1 -29.3893 -40.4508 0 0 0 0 
327 1 1 -28.8786 -40.817 0 0 0 0 
328 1 1 -28.3634 -41.1766 0 0 0 0 
329 1 1 -27.8438 -41.5298 0 0 0 0 
330 1 1 -27.3197 -41.8764 0 0 0 0 
331 1 1 -26.7913 -42.2164 0 0 0 0 
332 1 1 -26.2587 -42.5497 0 0 0 0 
333 1 1 -25.722 -42.8763 0 0 0 0 
334 1 1 -25.1812 -43.1962 0 0 0 0 
335 1 1 -24.6364 -43.5092 0 0 0 0 
336 1 1 -24.0877 -43.8153 0 0 0 0 
337 1 1 -23.5352 -44.1146 0 0 0 0 
338 1 1 -22.979 -44.4068 0 0 0 0 
339 1 1 -22.4192 -44.6921 0 0 0 0 
340 1 1 -21.8558 -44.9703 0 0 0 0 
341 1 1 -21.289 -45.2414 0 0 0 0 
342 1 1 -20.7188 -45.5053 0 0 0 0 
343 1 1 -20.1453 -45.7621 0 0 0 0 
344 1 1 -19.5687 -46.0116 0 0 0 0 
345 1 1 -18.989 -46.2539 0 0 0 0 
346 1 1 -18.4062 -46.4888 0 0 0 0 
347 1 1 -17.8206 -46.7164 0 0 0 0 
348 1 1 -17.2321 -46.9367 0 0 0 0 
349 1 1 -16.641 -47.1495 0 0 0 0 
350 1 1 -16.0472 -47.3549 0 0 0 0 
351 1 1 -15.4508 -47.5528 0 0 0 0 
352 1 1 -14.8521 -47.7432 0 0 0 0 
353 1 1 -14.251 -47.9261 0 0 0 0 
354 1 1 -13.6476 -48.1014 0 0 0 0 
355 1 1 -13.0421 -48.2691 0 0 0 0 
356 1 1 -12.4345 -48.4292 0 0 0 0 
357 1 1 -11.8249 -48.5816 0 0 0 0 
358 1 1 -11.2135 -48.7263 0 0 0 0 
359 1 1 -10.6004 -48.8634 0 0 0 0 
360 1 1 -9.9855 -48.9928 0 0 0 0 
361 1 1 -9.36907 -49.1144 0 0 0 0 
362 1 1 -8.75115 -49.2282 0 0 0 0 
363 1 1 -8.13186 -49.3343 0 0 0 0 
364 1 1 -7.51128 -49.4326 0 0 0 0 
365 1 1 -6.88951 -49.5231 0 0 0 0 
366 1 1 -6.26666 -49.6057 0 0 0 0 
367 1 1 -5.64282 -49.6806 0 0 0 0 
368 1 1 -5.01809 -49.7476 0 0 0 0 
369 1 1 -4.39256 -49.8067 0 0 0 0 
370 1 1 -3.76634 -49.8579 0 0 0 0 
371 1 1 -3.13953 -49.9013 0 0 0 0 
372 1 1 -2.51222 -49.9368 0 0 0 0 
373 1 1 -1.88451 -49.9645 0 0 0 0 
374 1 1 -1.2565 -49.9842 0 0 0 0 
375 1 1 -0.628302 -49.9961 0 0 0 0 
376 1 1 -9.18485e-15 -50 0 0 0 0 
377 1 1 0.628302 -49.9961 0 0 0 0 
378 1 1 1.2565 -49.9842 0 0 0 0 
379 1 1 1.88451 -49.9645 0 0 0 0 
380 1 1 2.51222 -49.9368 0 0 0 0 
381 1 1 3.13953 -49.9013 0 0 0 0 
382 1 1 3.76634 -49.8579 0 0 0 0 
383 1 1 4.39256 -49.8067 0 0 0 0 
384 1 1 5.01809 -49.7476 0 0 0 0 
385 1 1 5.64282 -49.6806 0 0 0 0 
386 1 1 6.26666 -49.6057 0 0 0 0 
387 1 1 6.88951 -49.5231 0 0 0 0 
388 1 1 7.51128 -49.4326 0 0 0 0 
389 1 1 8.13186 -49.3343 0 0 0 0 
390 1 1 8.75115 -49.2282 0 0 0 0 
391 1 1 9.36907 -49.1144 0 0 0 0 
392 1 1 9.9855 -48.9928 0 0 0 0 
393 1 1 10.6004 -48.8634 0 0 0 0 
394 1 1 11.2135 -48.7263 0 0 0 0 
395 1 1 11.8249 -48.5816 0 0 0 0 
396 1 1 12.4345 -48.4292 0 0 0 0 
397 1 1 13.0421 -48.2691 0 0 0 0 
398 1 1 13.6476 -48.1014 0 0 0 0 
399 1 1 14.251 -47.9261 0 0 0 0 
400 1 1 14.8521 -47.7432 0 0 0 0 
401 1 1 15.4508 -47.5528 0 0 0 0 
402 1 1 16.0472 -47.3549 0 0 0 0 
403 1 1 16.641 -47.1495 0 0 0 0 
404 1 1 17.2321 -46.9367 0 0 0 0 
405 1 1 17.8206 -46.7164 0 0 0 0 
406 1 1 18.4062 -46.4888 0 0 0 0 
407 1 1 18.989 -46.2539 0 0 0 0 
408 1 1 19.5687 -46.0116 0 0 0 0 
409 1 1 20.1453 -45.7621 0 0 0 0 
410 1 1 20.7188 -45.5053 0 0 0 0 
411 1 1 21.289 -45.2414 0 0 0 0 
412 1 1 21.8558 -44.9703 0 0 0 0 
413 1 1 22.4192 -44.6921 0 0 0 0 
414 1 1 22.979 -44.4068 0 0 0 0 
415 1 1 23.5352 -44.1146 0 0 0 0 
416 1 1 24.0877 -43.8153 0 0 0 0 
417 1 1 24.6364 -43.5092 0 0 0 0 
418 1 1 25.1812 -43.1962 0 0 0 0 
419 1 1 25.722 -42.8763 0 0 0 0 
420 1 1 26.2587 -42.5497 0 0 0 0 
421 1 1 26.7913 -42.2164 0 0 0 0 
422 1 1 27.3197 -41.8764 0 0 0 0 
423 1 1 27.8438 -41.5298 0 0 0 0 
424 1 1 28.3634 -41.1766 0 0 0 0 
425 1 1 28.8786 -40.817 0 0 0 0 
426 1 1 29.3893 -40.4508 0 0 0 0 
427 1 1 29.8952 -40.0783 0 0 0 0 
428 1 1 30.3965 -39.6995 0 0 0 0 
429 1 1 30.893 -39.3144 0 0 0 0 
430 1 1 31.3846 -38.9231 0 0 0 0 
431 1 1 31.8712 -38.5257 0 0 0 0 
432 1 1 32.3528 -38.1221 0 0 0 0 
433 1 1 32.8293 -37.7126 0 0 0 0 
434 1 1 33.3006 -37.2971 0 0 0 0 
435 1 1 33.7666 -36.8757 0 0 0 0 
436 1 1 34.2274 -36.4484 0 0 0 0 
437 1 1 34.6827 -36.0155 0 0 0 0 
438 1 1 35.1325 -35.5768 0 0 0 0 
439 1 1 35.5768 -35.1325 0 0 0 0 
440 1 1 36.0155 -34.6827 0 0 0 0 
441 1 1 36.4484 -34.2274 0 0 0 0 
442 1 1 36.8757 -33.7666 0 0 0 0 
443 1 1 37.2971 -33.3006 0 0 0 0 
444 1 1 37.7126 -32.8293 0 0 0 0 
445 1 1 38.1221 -32.3528 0 0 0 0 
446 1 1 38.5257 -31.8712 0 0 0 0 
447 1 1 38.9231 -31.3846 0 0 0 0 
448 1 1 39.3144 -30.893 0 0 0 0 
449 1 1 39.6995 -30.3965 0 0 0 0 
450 1 1 40.0783 -29.8952 0 0 0 0 
451 1 1 40.4508 -29.3893 0 0 0 0 
452 1 1 40.817 -28.8786 0 0 0 0 
453 1 1 41.1766 -28.3634 0 0 0 0 
454 1 1 41.5298 -27.8438 0 0 0 0 
455 1 1 41.8764 -27.3197 0 0 0 0 
456 1 1 42.2164 -26.7913 0 0 0 0 
457 1 1 42.5497 -26.2587 0 0 0 0 
458 1 1 42.8763 -25.722 0 0 0 0 
459 1 1 43.1962 -25.1812 0 0 0 0 
460 1 1 43.5092 -24.6364 0 0 0 0 
461 1 1 43.8153 -24.0877 0 0 0 0 
462 1 1 44.1146 -23.5352 0 0 0 0 
463 1 1 44.4068 -22.979 0 0 0 0 
464 1 1 44.6921 -22.4192 0 0 0 0 
465 1 1 44.9703 -21.8558 0 0 0 0 
466 1 1 45.2414 -21.289 0 0 0 0 
467 1 1 45.5053 -20.7188 0 0 0 0 
468 1 1 45.7621 -20.1453 0 0 0 0 
469 1 1 46.0116 -19.5687 0 0 0 0 
470 1 1 46.2539 -18.989 0 0 0 0 
471 1 1 46.4888 -18.4062 0 0 0 0 
472 1 1 46.7164 -17.8206 0 0 0 0 
473 1 1 46.9367 -17.2321 0 0 0 0 
474 1 1 47.1495 -16.641 0 0 0 0 
475 1 1 47.3549 -16.0472 0 0 0 0 
476 1 1 47.5528 -15.4508 0 0 0 0 
477 1 1 47.7432 -14.8521 0 0 0 0 
478 1 1 47.9261 -14.251 0 0 0 0 
479 1 1 48.1014 -13.6476 0 0 0 0 
480 1 1 48.2691 -13.0421 0 0 0 0 
481 1 1 48.4292 -12.4345 0 0 0 0 
482 1 1 48.5816 -11.8249 0 0 0 0 
483 1 1 48.7263 -11.2135 0 0 0 0 
484 1 1 48.8634 -10.6004 0 0 0 0 
485 1 1 48.9928 -9.9855 0 0 0 0 
486 1 1 49.1144 -9.36907 0 0 0 0 
487 1 1 49.2282 -8.75115 0 0 0 0 
488 1 1 49.3343 -8.13186 0 0 0 0 
489 1 1 49.4326 -7.51128 0 0 0 0 
490 1 1 49.5231 -6.88951 0 0 0 0 
491 1 1 49.6057 -6.26666 0 0 0 0 
492 1 1 49.6806 -5.64282 0 0 0 0 
493 1 1 49.7476 -5.01809 0 0 0 0 
494 1 1 49.8067 -4.39256 0 0 0 0 
495 1 1 49.8579 -3.76634 0 0 0 0 
496 1 1 49.9013 -3.13953 0 0 0 0 
497 1 1 49.9368 -2.51222 0 0 0 0 
498 1 1 49.9645 -1.88451 0 0 0 0 
499 1 1 49.9842 -1.2565 0 0 0 0 
500 1 1 49.9961 -0.628302 0 0 0 0 
501 2 2 0 0 0 0 0 0 
502 2 2 0 -0.00394779 0.628302 0 0 0 
503 2 2 0 -0.0157905 1.2565 0 0 0 
504 2 2 0 -0.0355264 1.88451 0 0 0 
505 2 2 0 -0.0631522 2.51222 0 0 0 
506 2 2 0 -0.0986636 3.13953 0 0 0 
507 2 2 0 -0.142055 3.76634 0 0 0 
508 2 2 0 -0.19332 4.39256 0 0 0 
509 2 2 0 -0.252449 5.01809 0 0 0 
510 2 2 0 -0.319434 5.64282 0 0 0 
511 2 2 0 -0.394265 6.26666 0 0 0 
512 2 2 0 -0.476929 6.88951 0 0 0 
513 2 2 0 -0.567413 7.51128 0 0 0 
514 2 2 0 -0.665703 8.13186 0 0 0 
515 2 2 0 -0.771783 8.75115 0 0 0 
516 2 2 0 -0.885637 9.36907 0 0 0 
517 2 2 0 -1.00725 9.9855 0 0 0 
518 2 2 0 -1.13659 10.6004 0 0 0 
519 2 2 0 -1.27366 11.2135 0 0 0 
520 2 2 0 -1.41841 11.8249 0 0 0 
521 2 2 0 -1.57084 12.4345 0 0 0 
522 2 2 0 -1.73092 13.0421 0 0 0 
523 2 2 0 -1.89862 13.6476 0 0 0 
524 2 2 0 -2.07391 14.251 0 0 0 
525 2 2 0 -2.25677 14.8521 0 0 0 
526 2 2 0 -2.44717 15.4508 0 0 0 
527 2 2 0 -2.64508 16.0472 0 0 0 
528 2 2 0 -2.85047 16.641 0 0 0 
529 2 2 0 -3.06331 17.2321 0 0 0 
530 2 2 0 -3.28355 17.8206 0 0 0 
531 2 2 0 -3.51118 18.4062 0 0 0 
532 2 2 0 -3.74614 18.989 0 0 0 
533 2 2 0 -3.98841 19.5687 0 0 0 
534 2 2 0 -4.23794 20.1453 0 0 0 
535 2 2 0 -4.4947 20.7188 0 0 0 
536 2 2 0 -4.75865 21.289 0 0 0 
537 2 2 0 -5.02974 21.8558 0 0 0 
538 2 2 0 -5.30793 22.4192 0 0 0 
539 2 2 0 -5.59318 22.979 0 0 0 
540 2 2 0 -5.88544 23.5352 0 0 0 
541 2 2 0 -6.18467 24.0877 0 0 0 
542 2 2 0 -6.49081 24.6364 0 0 0 
543 2 2 0 -6.80383 25.1812 0 0 0 
544 2 2 0 -7.12367 25.722 0 0 0 
545 2 2 0 -7.45028 26.2587 0 0 0 
546 2 2 0 -7.7836 26.7913 0 0 0 
547 2 2 0 -8.1236 27.3197 0 0 0 
548 2 2 0 -8.47021 27.8438 0 0 0 
549 2 2 0 -8.82337 28.3634 0 0 0 
550 2 2 0 -9.18304 28.8786 0 0 0 
551 2 2 0 -9.54915 29.3893 0 0 0 
552 2 2 0 -9.92165 29.8952 0 0 0 
553 2 2 0 -10.3005 30.3965 0 0 0 
554 2 2 0 -10.6856 30.893 0 0 0 
555 2 2 0 -11.0769 31.3846 0 0 0 
556 2 2 0 -11.4743 31.8712 0 0 0 
557 2 2 0 -11.8779 32.3528 0 0 0 
558 2 2 0 -12.2874 32.8293 0 0 0 
559 2 2 0 -12.7029 33.3006 0 0 0 
560 2 2 0 -13.1243 33.7666 0 0 0 
561 2 2 0 -13.5516 34.2274 0 0 0 
562 2 2 0 -13.9845 34.6827 0 0 0 
563 2 2 0 -14.4232 35.1325 0 0 0 
564 2 2 0 -14.8675 35.5768 0 0 0 
565 2 2 0 -15.3173 36.0155 0 0 0 
566 2 2 0 -15.7726 36.4484 0 0 0 
567 2 2 0 -16.2334 36.8757 0 0 0 
568 2 2 0 -16.6994 37.2971 0 0 0 
569 2 2 0 -17.1707 37.7126 0 0 0 
570 2 2 0 -17.6472 38.1221 0 0 0 
571 2 2 0 -18.1288 38.5257 0 0 0 
572 2 2 0 -18.6154 38.9231 0 0 0 
573 2 2 0 -19.107 39.3144 0 0 0 
574 2 2 0 -19.6035 39.6995 0 0 0 
575 2 2 0 -20.1048 40.0783 0 0 0 
576 2 2 0 -20.6107 40.4508 0 0 0 
577 2 2 0 -21.1214 40.817 0 0 0 
578 2 2 0 -21.6366 41.1766 0 0 0 
579 2 2 0 -22.1562 41.5298 0 0 0 
580 2 2 0 -22.6803 41.8764 0 0 0 
581 2 2 0 -23.2087 42.2164 0 0 0 
582 2 2 0 -23.7413 42.5497 0 0 0 
583 2 2 0 -24.278 42.8763 0 0 0 
584 2 2 0 -24.8188 43.1962 0 0 0 
585 2 2 0 -25.3636 43.5092 0 0 0 
586 2 2 0 -25.9123 43.8153 0 0 0 
587 2 2 0 -26.4648 44.1146 0 0 0 
588 2 2 0 -27.021 44.4068 0 0 0 
589 2 2 0 -27.5808 44.6921 0 0 0 
590 2 2 0 -28.1442 44.9703 0 0 0 
591 2 2 0 -28.711 45.2414 0 0 0 
592 2 2 0 -29.2812 45.5053 0 0 0 
593 2 2 0 -29.8547 45.7621 0 0 0 
594 2 2 0 -30.4313 46.0116 0 0 0 
595 2 2 0 -31.011 46.2539 0 0 0 
596 2 2 0 -31.5938 46.4888 0 0 0 
597 2 2 0 -32.1794 46.7164 0 0 0 
598 2 2 0 -32.7679 46.9367 0 0 0 
599 2 2 0 -33.359 47.1495 0 0 0 
600 2 2 0 -33.9528 47.3549 0 0 0 
601 2 2 0 -34.5492 47.5528 0 0 0 
602 2 2 0 -35.1479 47.7432 0 0 0 
603 2 2 0 -35.749 47.9261 0 0 0 
604 2 2 0 -36.3524 48.1014 0 0 0 
605 2 2 0 -36.9579 48.2691 0 0 0 
606 2 2 0 -37.5655 48.4292 0 0 0 
607 2 2 0 -38.1751 48.5816 0 0 0 
608 2 2 0 -38.7865 48.7263 0 0 0 
609 2 2 0 -39.3996 48.8634 0 0 0 
610 2 2 0 -40.0145 48.9928 0 0 0 
611 2 2 0 -40.6309 49.1144 0 0 0 
612 2 2 0 -41.2488 49.2282 0 0 0 
613 2 2 0 -41.8681 49.3343 0 0 0 
614 2 2 0 -42.4887 49.4326 0 0 0 
615 2 2 0 -43.1105 49.5231 0 0 0 
616 2 2 0 -43.7333 49.6057 0 0 0 
617 2 2 0 -44.3572 49.6806 0 0 0 
618 2 2 0 -44.9819 49.7476 0 0 0 
619 2 2 0 -45.6074 49.8067 0 0 0 
620 2 2 0 -46.2337 49.8579 0 0 0 
621 2 2 0 -46.8605 49.9013 0 0 0 
622 2 2 0 -47.4878 49.9368 0 0 0 
623 2 2 0 -48.1155 49.9645 0 0 0 
624 2 2 0 -48.7435 49.9842 0 0 0 
625 2 2 0 -49.3717 49.9961 0 0 0 
626 2 2 0 -50 50 0 0 0 
627 2 2 0 -50.6283 49.9961 0 0 0 
628 2 2 0 -51.2565 49.9842 0 0 0 
629 2 2 0 -51.8845 49.9645 0 0 0 
630 2 2 0 -52.5122 49.9368 0 0 0 
631 2 2 0 -53.1395 49.9013 0 0 0 
632 2 2 0 -53.7663 49.8579 0 0 0 
633 2 2 0 -54.3926 49.8067 0 0 0 
634 2 2 0 -55.0181 49.7476 0 0 0 
635 2 2 0 -55.6428 49.6806 0 0 0 
636 2 2 0 -56.2667 49.6057 0 0 0 
637 2 2 0 -56.8895 49.5231 0 0 0 
638 2 2 0 -57.5113 49.4326 0 0 0 
639 2 2 0 -58.1319 49.3343 0 0 0 
640 2 2 0 -58.7512 49.2282 0 0 0 
641 2 2 0 -59.3691 49.1144 0 0 0 
642 2 2 0 -59.9855 48.9928 0 0 0 
643 2 2 0 -60.6004 48.8634 0 0 0 
644 2 2 0 -61.2135 48.7263 0 0 0 
645 2 2 0 -61.8249 48.5816 0 0 0 
646 2 2 0 -62.4345 48.4292 0 0 0 
647 2 2 0 -63.0421 48.2691 0 0 0 
648 2 2 0 -63.6476 48.1014 0 0 0 
649 2 2 0 -64.251 47.9261 0 0 0 
650 2 2 0 -64.8521 47.7432 0 0 0 
651 2 2 0 -65.4508 47.5528 0 0 0 
652 2 2 0 -66.0472 47.3549 0 0 0 
653 2 2 0 -66.641 47.1495 0 0 0 
654 2 2 0 -67.2321 46.9367 0 0 0 
655 2 2 0 -67.8206 46.7164 0 0 0 
656 2 2 0 -68.4062 46.4888 0 0 0 
657 2 2 0 -68.989 46.2539 0 0 0 
658 2 2 0 -69.5687 46.0116 0 0 0 
659 2 2 0 -70.1453 45.7621 0 0 0 
660 2 2 0 -70.7188 45.5053 0 0 0 
661 2 2 0 -71.289 45.2414 0 0 0 
662 2 2 0 -71.8558 44.9703 0 0 0 
663 2 2 0 -72.4192 44.6921 0 0 0 
664 2 2 0 -72.979 44.4068 0 0 0 
665 2 2 0 -73.5352 44.1146 0 0 0 
666 2 2 0 -74.0877 43.8153 0 0 0 
667 2 2 0 -74.6364 43.5092 0 0 0 
668 2 2 0 -75.1812 43.1962 0 0 0 
669 2 2 0 -75.722 42.8763 0 0 0 
670 2 2 0 -76.2587 42.5497 0 0 0 
671 2 2 0 -76.7913 42.2164 0 0 0 
672 2 2 0 -77.3197 41.8764 0 0 0 
673 2 2 0 -77.8438 41.5298 0 0 0 
674 2 2 0 -78.3634 41.1766 0 0 0 
675 2 2 0 -78.8786 40.817 0 0 0 
676 2 2 0 -79.3893 40.4508 0 0 0 
677 2 2 0 -79.8952 40.0783 0 0 0 
678 2 2 0 -80.3965 39.6995 0 0 0 
679 2 2 0 -80.893 39.3144 0 0 0 
680 2 2 0 -81.3846 38.9231 0 0 0 
681 2 2 0 -81.8712 38.5257 0 0 0 
682 2 2 0 -82.3528 38.1221 0 0 0 
683 2 2 0 -82.8293 37.7126 0 0 0 
684 2 2 0 -83.3006 37.2971 0 0 0 
685 2 2 0 -83.7666 36.8757 0 0 0 
686 2 2 0 -84.2274 36.4484 0 0 0 
687 2 2 0 -84.6827 36.0155 0 0 0 
688 2 2 0 -85.1325 35.5768 0 0 0 
689 2 2 0 -85.5768 35.1325 0 0 0 
690 2 2 0 -86.0155 34.6827 0 0 0 
691 2 2 0 -86.4484 34.2274 0 0 0 
692 2 2 0 -86.8757 33.7666 0 0 0 
693 2 2 0 -87.2971 33.3006 0 0 0 
694 2 2 0 -87.7126 32.8293 0 0 0 
695 2 2 0 -88.1221 32.3528 0 0 0 
696 2 2 0 -88.5257 31.8712 0 0 0 
697 2 2 0 -88.9231 31.3846 0 0 0 
698 2 2 0 -89.3144 30.893 0 0 0 
699 2 2 0 -89.6995 30.3965 0 0 0 
700 2 2 0 -90.0783 29.8952 0 0 0 
701 2 2 0 -90.4508 29.3893 0 0 0 
702 2 2 0 -90.817 28.8786 0 0 0 
703 2 2 0 -91.1766 28.3634 0 0 0 
704 2 2 0 -91.5298 27.8438 0 0 0 
705 2 2 0 -91.8764 27.3197 0 0 0 
706 2 2 0 -92.2164 26.7913 0 0 0 
707 2 2 0 -92.5497 26.2587 0 0 0 
708 2 2 0 -92.8763 25.722 0 0 0 
709 2 2 0 -93.1962 25.1812 0 0 0 
710 2 2 0 -93.5092 24.6364 0 0 0 
711 2 2 0 -93.8153 24.0877 0 0 0 
712 2 2 0 -94.1146 23.5352 0 0 0 
713 2 2 0 -94.4068 22.979 0 0 0 
714 2 2 0 -94.6921 22.4192 0 0 0 
715 2 2 0 -94.9703 21.8558 0 0 0 
716 2 2 0 -95.2414 21.289 0 0 0 
717 2 2 0 -95.5053 20.7188 0 0 0 
718 2 2 0 -95.7621 20.1453 0 0 0 
719 2 2 0 -96.0116 19.5687 0 0 0 
720 2 2 0 -96.2539 18.989 0 0 0 
721 2 2 0 -96.4888 18.4062 0 0 0 
722 2 2 0 -96.7164 17.8206 0 0 0 
723 2 2 0 -96.9367 17.2321 0 0 0 
724 2 2 0 -97.1495 16.641 0 0 0 
725 2 2 0 -97.3549 16.0472 0 0 0 
726 2 2 0 -97.5528 15.4508 0 0 0 
727 2 2 0 -97.7432 14.8521 0 0 0 
728 2 2 0 -97.9261 14.251 0 0 0 
729 2 2 0 -98.1014 13.6476 0 0 0 
730 2 2 0 -98.2691 13.0421 0 0 0 
731 2 2 0 -98.4292 12.4345 0 0 0 
732 2 2 0 -98.5816 11.8249 0 0 0 
733 2 2 0 -98.7263 11.2135 0 0 0 
734 2 2 0 -98.8634 10.6004 0 0 0 
735 2 2 0 -98.9928 9.9855 0 0 0 
736 2 2 0 -99.1144 9.36907 0 0 0 
737 2 2 0 -99.2282 8.75115 0 0 0 
738 2 2 0 -99.3343 8.13186 0 0 0 
739 2 2 0 -99.4326 7.51128 0 0 0 
740 2 2 0 -99.5231 6.88951 0 0 0 
741 2 2 0 -99.6057 6.26666 0 0 0 
742 2 2 0 -99.6806 5.64282 0 0 0 
743 2 2 0 -99.7476 5.01809 0 0 0 
744 2 2 0 -99.8067 4.39256 0 0 0 
745 2 2 0 -99.8579 3.76634 0 0 0 
746 2 2 0 -99.9013 3.13953 0 0 0 
747 2 2 0 -99.9368 2.51222 0 0 0 
748 2 2 0 -99.9645 1.88451 0 0 0 
749 2 2 0 -99.9842 1.2565 0 0 0 
750 2 2 0 -99.9961 0.628302 0 0 0 
751 2 2 0 -100 6.12323e-15 0 0 0 
752 2 2 0 -99.9961 -0.628302 0 0 0 
753 2 2 0 -99.9842 -1.2565 0 0 0 
754 2 2 0 -99.9645 -1.88451 0 0 0 
755 2 2 0 -99.9368 -2.51222 0 0 0 
756 2 2 0 -99.9013 -3.13953 0 0 0 
757 2 2 0 -99.8579 -3.76634 0 0 0 
758 2 2 0 -99.8067 -4.39256 0 0 0 
759 2 2 0 -99.7476 -5.01809 0 0 0 
760 2 2 0 -99.6806 -5.64282 0 0 0 
761 2 2 0 -99.6057 -6.26666 0 0 0 
762 2 2 0 -99.5231 -6.88951 0 0 0 
763 2 2 0 -99.4326 -7.51128 0 0 0 
764 2 2 0 -99.3343 -8.13186 0 0 0 
765 2 2 0 -99.2282 -8.75115 0 0 0 
766 2 2 0 -99.1144 -9.36907 0 0 0 
767 2 2 0 -98.9928 -9.9855 0 0 0 
768 2 2 0 -98.8634 -10.6004 0 0 0 
769 2 2 0 -98.7263 -11.2135 0 0 0 
770 2 2 0 -98.5816 -11.8249 0 0 0 
771 2 2 0 -98.4292 -12.4345 0 0 0 
772 2 2 0 -98.2691 -13.0421 0 0 0 
773 2 2 0 -98.1014 -13.6476 0 0 0 
774 2 2 0 -97.9261 -14.251 0 0 0 
775 2 2 0 -97.7432 -14.8521 0 0 0 
776 2 2 0 -97.5528 -15.4508 0 0 0 
777 2 2 0 -97.3549 -16.0472 0 0 0 
778 2 2 0 -97.1495 -16.641 0 0 0 
779 2 2 0 -96.9367 -17.2321 0 0 0 
780 2 2 0 -96.7164 -17.8206 0 0 0 
781 2 2 0 -96.4888 -18.4062 0 0 0 
782 2 2 0 -96.2539 -18.989 0 0 0 
783 2 2 0 -96.0116 -19.5687 0 0 0 
784 2 2 0 -95.7621 -20.1453 0 0 0 
785 2 2 0 -95.5053 -20.7188 0 0 0 
786 2 2 0 -95.2414 -21.289 0 0 0 
787 2 2 0 -94.9703 -21.8558 0 0 0 
788 2 2 0 -94.6921 -22.4192 0 0 0 
789 2 2 0 -94.4068 -22.979 0 0 0 
790 2 2 0 -94.1146 -23.5352 0 0 0 
791 2 2 0 -93.8153 -24.0877 0 0 0 
792 2 2 0 -93.5092 -24.6364 0 0 0 
793 2 2 0 -93.1962 -25.1812 0 0 0 
794 2 2 0 -92.8763 -25.722 0 0 0 
795 2 2 0 -92.5497 -26.2587 0 0 0 
796 2 2 0 -92.2164 -26.7913 0 0 0 
797 2 2 0 -91.8764 -27.3197 0 0 0 
798 2 2 0 -91.5298 -27.8438 0 0 0 
799 2 2 0 -91.1766 -28.3634 0 0 0 
800 2 2 0 -90.817 -28.8786 0 0 0 
801 2 2 0 -90.4508 -29.3893 0 0 0 
802 2 2 0 -90.0783 -29.8952 0 0 0 
803 2 2 0 -89.6995 -30.3965 0 0 0 
804 2 2 0 -89.3144 -30.893 0 0 0 
805 2 2 0 -88.9231 -31.3846 0 0 0 
806 2 2 0 -88.5257 -31.8712 0 0 0 
807 2 2 0 -88.1221 -32.3528 0 0 0 
808 2 2 0 -87.7126 -32.8293 0 0 0 
809 2 2 0 -87.2971 -33.3006 0 0 0 
810 2 2 0 -86.8757 -33.7666 0 0 0 
811 2 2 0 -86.4484 -34.2274 0 0 0 
812 2 2 0 -86.0155 -34.6827 0 0 0 
813 2 2 0 -85.5768 -35.1325 0 0 0 
814 2 2 0 -85.1325 -35.5768 0 0 0 
815 2 2 0 -84.6827 -36.0155 0 0 0 
816 2 2 0 -84.2274 -36.4484 0 0 0 
817 2 2 0 -83.7666 -36.8757 0 0 0 
818 2 2 0 -83.3006 -37.2971 0 0 0 
819 2 2 0 -82.8293 -37.7126 0 0 0 
820 2 2 0 -82.3528 -38.1221 0 0 0 
821 2 2 0 -81.8712 -38.5257 0 0 0 
822 2 2 0 -81.3846 -38.9231 0 0 0 
823 2 2 0 -80.893 -39.3144 0 0 0 
824 2 2 0 -80.3965 -39.6995 0 0 0 
825 2 2 0 -79.8952 -40.0783 0 0 0 
826 2 2 0 -79.3893 -40.4508 0 0 0 
827 2 2 0 -78.8786 -40.817 0 0 0 
828 2 2 0 -78.3634 -41.1766 0 0 0 
829 2 2 0 -77.8438 -41.5298 0 0 0 
830 2 2 0 -77.3197 -41.8764 0 0 0 
831 2 2 0 -76.7913 -42.2164 0 0 0 
832 2 2 0 -76.2587 -42.5497 0 0 0 
833 2 2 0 -75.722 -42.8763 0 0 0 
834 2 2 0 -75.1812 -43.1962 0 0 0 
835 2 2 0 -74.6364 -43.5092 0 0 0 
836 2 2 0 -74.0877 -43.8153 0 0 0 
837 2 2 0 -73.5352 -44.1146 0 0 0 
838 2 2 0 -72.979 -44.4068 0 0 0 
839 2 2 0 -72.4192 -44.6921 0 0 0 
840 2 2 0 -71.8558 -44.9703 0 0 0 
841 2 2 0 -71.289 -45.2414 0 0 0 
842 2 2 0 -70.7188 -45.5053 0 0 0 
843 2 2 0 -70.1453 -45.7621 0 0 0 
844 2 2 0 -69.5687 -46.0116 0 0 0 
845 2 2 0 -68.989 -46.2539 0 0 0 
846 2 2 0 -68.4062 -46.4888 0 0 0 
847 2 2 0 -67.8206 -46.7164 0 0 0 
848 2 2 0 -67.2321 -46.9367 0 0 0 
849 2 2 0 -66.641 -47.1495 0 0 0 
850 2 2 0 -66.0472 -47.3549 0 0 0 
851 2 2 0 -65.4508 -47.5528 0 0 0 
852 2 2 0 -64.8521 -47.7432 0 0 0 
853 2 2 0 -64.251 -47.9261 0 0 0 
854 2 2 0 -63.6476 -48.1014 0 0 0 
855 2 2 0 -63.0421 -48.2691 0 0 0 
856 2 2 0 -62.4345 -48.4292 0 0 0 
857 2 2 0 -61.8249 -48.5816 0 0 0 
858 2 2 0 -61.2135 -48.7263 0 0 0 
859 2 2 0 -60.6004 -48.8634 0 0 0 
860 2 2 0 -59.9855 -48.9928 0 0 0 
861 2 2 0 -59.3691 -49.1144 0 0 0 
862 2 2 0 -58.7512 -49.2282 0 0 0 
863 2 2 0 -58.1319 -49.3343 0 0 0 
864 2 2 0 -57.5113 -49.4326 0 0 0 
865 2 2 0 -56.8895 -49.5231 0 0 0 
866 2 2 0 -56.2667 -49.6057 0 0 0 
867 2 2 0 -55.6428 -49.6806 0 0 0 
868 2 2 0 -55.0181 -49.7476 0 0 0 
869 2 2 0 -54.3926 -49.8067 0 0 0 
870 2 2 0 -53.7663 -49.8579 0 0 0 
871 2 2 0 -53.1395 -49.9013 0 0 0 
872 2 2 0 -52.5122 -49.9368 0 0 0 
873 2 2 0 -51.8845 -49.9645 0 0 0 
874 2 2 0 -51.2565 -49.9842 0 0 0 
875 2 2 0 -50.6283 -49.9961 0 0 0 
876 2 2 0 -50 -50 0 0 0 
877 2 2 0 -49.3717 -49.9961 0 0 0 
878 2 2 0 -48.7435 -49.9842 0 0 0 
879 2 2 0 -48.1155 -49.9645 0 0 0 
880 2 2 0 -47.4878 -49.9368 0 0 0 
881 2 2 0 -46.8605 -49.9013 0 0 0 
882 2 2 0 -46.2337 -49.8579 0 0 0 
883 2 2 0 -45.6074 -49.8067 0 0 0 
884 2 2 0 -44.9819 -49.7476 0 0 0 
885 2 2 0 -44.3572 -49.6806 0 0 0 
886 2 2 0 -43.7333 -49.6057 0 0 0 
887 2 2 0 -43.1105 -49.5231 0 0 0 
888 2 2 0 -42.4887 -49.4326 0 0 0 
889 2 2 0 -41.8681 -49.3343 0 0 0 
890 2 2 0 -41.2488 -49.2282 0 0 0 
891 2 2 0 -40.6309 -49.1144 0 0 0 
892 2 2 0 -40.0145 -48.9928 0 0 0 
893 2 2 0 -39.3996 -48.8634 0 0 0 
894 2 2 0 -38.7865 -48.7263 0 0 0 
895 2 2 0 -38.1751 -48.5816 0 0 0 
896 2 2 0 -37.5655 -48.4292 0 0 0 
897 2 2 0 -36.9579 -48.2691 0 0 0 
898 2 2 0 -36.3524 -48.1014 0 0 0 
899 2 2 0 -35.749 -47.9261 0 0 0 
900 2 2 0 -35.1479 -47.7432 0 0 0 
901 2 2 0 -34.5492 -47.5528 0 0 0 
902 2 2 0 -33.9528 -47.3549 0 0 0 
903 2 2 0 -33.359 -47.1495 0 0 0 
904 2 2 0 -32.7679 -46.9367 0 0 0 
905 2 2 0 -32.1794 -46.7164 0 0 0 
906 2 2 0 -31.5938 -46.4888 0 0 0 
907 2 2 0 -31.011 -46.2539 0 0 0 
908 2 2 0 -30.4313 -46.0116 0 0 0 
909 2 2 0 -29.8547 -45.7621 0 0 0 
910 2 2 0 -29.2812 -45.5053 0 0 0 
911 2 2 0 -28.711 -45.2414 0 0 0 
912 2 2 0 -28.1442 -44.9703 0 0 0 
913 2 2 0 -27.5808 -44.6921 0 0 0 
914 2 2 0 -27.021 -44.4068 0 0 0 
915 2 2 0 -26.4648 -44.1146 0 0 0 
916 2 2 0 -25.9123 -43.8153 0 0 0 
917 2 2 0 -25.3636 -43.5092 0 0 0 
918 2 2 0 -24.8188 -43.1962 0 0 0 
919 2 2 0 -24.278 -42.8763 0 0 0 
920 2 2 0 -23.7413 -42.5497 0 0 0 
921 2 2 0 -23.2087 -42.2164 0 0 0 
922 2 2 0 -22.6803 -41.8764 0 0 0 
923 2 2 0 -22.1562 -41.5298 0 0 0 
924 2 2 0 -21.6366 -41.1766 0 0 0 
925 2 2 0 -21.1214 -40.817 0 0 0 
926 2 2 0 -20.6107 -40.4508 0 0 0 
927 2 2 0 -20.1048 -40.0783 0 0 0 
928 2 2 0 -19.6035 -39.6995 0 0 0 
929 2 2 0 -19.107 -39.3144 0 0 0 
930 2 2 0 -18.6154 -38.9231 0 0 0 
931 2 2 0 -18.1288 -38.5257 0 0 0 
932 2 2 0 -17.6472 -38.1221 0 0 0 
933 2 2 0 -17.1707 -37.7126 0 0 0 
934 2 2 0 -16.6994 -37.2971 0 0 0 
935 2 2 0 -16.2334 -36.8757 0 0 0 
936 2 2 0 -15.7726 -36.4484 0 0 0 
937 2 2 0 -15.3173 -36.0155 0 0 0 
938 2 2 0 -14.8675 -35.5768 0 0 0 
939 2 2 0 -14.4232 -35.1325 0 0 0 
940 2 2 0 -13.9845 -34.6827 0 0 0 
941 2 2 0 -13.5516 -34.2274 0 0 0 
942 2 2 0 -13.1243 -33.7666 0 0 0 
943 2 2 0 -12.7029 -33.3006 0 0 0 
944 2 2 0 -12.2874 -32.8293 0 0 0 
945 2 2 0 -11.8779 -32.3528 0 0 0 
946 2 2 0 -11.4743 -31.8712 0 0 0 
947 2 2 0 -11.0769 -31.3846 0 0 0 
948 2 2 0 -10.6856 -30.893 0 0 0 
949 2 2 0 -10.3005 -30.3965 0 0 0 
950 2 2 0 -9.92165 -29.8952 0 0 0 
951 2 2 0 -9.54915 -29.3893 0 0 0 
952 2 2 0 -9.18304 -28.8786 0 0 0 
953 2 2 0 -8.82337 -28.3634 0 0 0 
954 2 2 0 -8.47021 -27.8438 0 0 0 
955 2 2 0 -8.1236 -27.3197 0 0 0 
956 2 2 0 -7.7836 -26.7913 0 0 0 
957 2 2 0 -7.45028 -26.2587 0 0 0 
958 2 2 0 -7.12367 -25.722 0 0 0 
959 2 2 0 -6.80383 -25.1812 0 0 0 
960 2 2 0 -6.49081 -24.6364 0 0 0 
961 2 2 0 -6.18467 -24.0877 0 0 0 
962 2 2 0 -5.88544 -23.5352 0 0 0 
963 2 2 0 -5.59318 -22.979 0 0 0 
964 2 2 0 -5.30793 -22.4192 0 0 0 
965 2 2 0 -5.02974 -21.8558 0 0 0 
966 2 2 0 -4.75865 -21.289 0 0 0 
967 2 2 0 -4.4947 -20.7188 0 0 0 
968 2 2 0 -4.23794 -20.1453 0 0 0 
969 2 2 0 -3.98841 -19.5687 0 0 0 
970 2 2 0 -3.74614 -18.989 0 0 0 
971 2 2 0 -3.51118 -18.4062 0 0 0 
972 2 2 0 -3.28355 -17.8206 0 0 0 
973 2 2 0 -3.06331 -17.2321 0 0 0 
974 2 2 0 -2.85047 -16.641 0 0 0 
975 2 2 0 -2.64508 -16.0472 0 0 0 
976 2 2 0 -2.44717 -15.4508 0 0 0 
977 2 2 0 -2.25677 -14.8521 0 0 0 
978 2 2 0 -2.07391 -14.251 0 0 0 
979 2 2 0 -1.89862 -13.6476 0 0 0 
980 2 2 0 -1.73092 -13.0421 0 0 0 
981 2 2 0 -1.57084 -12.4345 0 0 0 
982 2 2 0 -1.41841 -11.8249 0 0 0 
983 2 2 0 -1.27366 -11.2135 0 0 0 
984 2 2 0 -1.13659 -10.6004 0 0 0 
985 2 2 0 -1.00725 -9.9855 0 0 0 
986 2 2 0 -0.885637 -9.36907 0 0 0 
987 2 2 0 -0.771783 -8.75115 0 0 0 
988 2 2 0 -0.665703 -8.13186 0 0 0 
989 2 2 0 -0.567413 -7.51128 0 0 0 
990 2 2 0 -0.476929 -6.88951 0 0 0 
991 2 2 0 -0.394265 -6.26666 0 0 0 
992 2 2 0 -0.319434 -5.64282 0 0 0 
993 2 2 0 -0.252449 -5.01809 0 0 0 
994 2 2 0 -0.19332 -4.39256 0 0 0 
995 2 2 0 -0.142055 -3.76634 0 0 0 
996 2 2 0 -0.0986636 -3.13953 0 0 0 
997 2 2 0 -0.0631522 -2.51222 0 0 0 
998 2 2 0 -0.0355264 -1.88451 0 0 0 
999 2 2 0 -0.0157905 -1.2565 0 0 0 
1000 2 2 0 -0.00394779 -0.628302 0 0 0 


Bonds

1 1 1 2
2 1 2 3
3 1 3 4
4 1 4 5
5 1 5 6
6 1 6 7
7 1 7 8
8 1 8 9
9 1 9 10
10 1 10 11
11 1 11 12
12 1 12 13
13 1 13 14
14 1 14 15
15 1 15 16
16 1 16 17
17 1 17 18
18 1 18 19
19 1 19 20
20 1 20 21
21 1 21 22
22 1 22 23
23 1 23 24
24 1 24 25
25 1 25 26
26 1 26 27
27 1 27 28
28 1 28 29
29 1 29 30
30 1 30 31
31 1 31 32
32 1 32 33
33 1 33 34
34 1 34 35
35 1 35 36
36 1 36 37
37 1 37 38
38 1 38 39
39 1 39 40
40 1 40 41
41 1 41 42
42 1 42 43
43 1 43 44
44 1 44 45
45 1 45 46
46 1 46 47
47 1 47 48
48 1 48 49
49 1 49 50
50 1 50 51
51 1 51 52
52 1 52 53
53 1 53 54
54 1 54 55
55 1 55 56
56 1 56 57
57 1 57 58
58 1 58 59
59 1 59 60
60 1 60 61
61 1 61 62
62 1 62 63
63 1 63 64
64 1 64 65
65 1 65 66
66 1 66 67
67 1 67 68
68 1 68 69
69 1 69 70
70 1 70 71
71 1 71 72
72 1 72 73
73 1 73 74
74 1 74 75
75 1 75 76
76 1 76 77
77 1 77 78
78 1 78 79
79 1 79 80
80 1 80 81
81 1 81 82
82 1 82 83
83 1 83 84
84 1 84 85
85 1 85 86
86 1 86 87
87 1 87 88
88 1 88 89
89 1 89 90
90 1 90 91
91 1 91 92
92 1 92 93
93 1 93 94
94 1 94 95
95 1 95 96
96 1 96 97
97 1 97 98
98 1 98 99
99 1 99 100
100 1 100 101
101 1 101 102
102 1 102 103
103 1 103 104
104 1 104 105
105 1 105 106
106 1 106 107
107 1 107 108
108 1 108 109
109 1 109 110
110 1 110 111
111 1 111 112
112 1 112 113
113 1 113 114
114 1 114 115
115 1 115 116
116 1 116 117
117 1 117 118
118 1 118 119
119 1 119 120
120 1 120 121
121 1 121 122
122 1 122 123
123 1 123 124
124 1 124 125
125 1 125 126
126 1 126 127
127 1 127 128
128 1 128 129
129 1 129 130
130 1 130 131
131 1 131 132
132 1 132 133
133 1 133 134
134 1 134 135
135 1 135 136
136 1 136 137
137 1 137 138
138 1 138 139
139 1 139 140
140 1 140 141
141 1 141 142
142 1 142 143
143 1 143 144
144 1 144 145
145 1 145 146
146 1 146 147
147 1 147 148
148 1 148 149
149 1 149 150
150 1 150 151
151 1 151 152
152 1 152 153
153 1 153 154
154 1 154 155
155 1 155 156
156 1 156 157
157 1 157 158
158 1 158 159
159 1 159 160
160 1 160 161
161 1 161 162
162 1 162 163
163 1 163 164
164 1 164 165
165 1 165 166
166 1 166 167
167 1 167 168
168 1 168 169
169 1 169 170
170 1 170 171
171 1 171 172
172 1 172 173
173 1 173 174
174 1 174 175
175 1 175 176
176 1 176 177
177 1 177 178
178 1 178 179
179 1 179 180
180 1 180 181
181 1 181 182
182 1 182 183
183 1 183 184
184 1 184 185
185 1 185 186
186 1 186 187
187 1 187 188
188 1 188 189
189 1 189 190
190 1 190 191
191 1 191 192
192 1 192 193
193 1 193 194
194 1 194 195
195 1 195 196
196 1 196 197
197 1 197 198
198 1 198 199
199 1 199 200
200 1 200 201
201 1 201 202
202 1 202 203
203 1 203 204
204 1 204 205
205 1 205 206
206 1 206 207
207 1 207 208
208 1 208 209
209 1 209 210
210 1 210 211
211 1 211 212
212 1 212 213
213 1 213 214
214 1 214 215
215 1 215 216
216 1 216 217
217 1 217 218
218 1 218 219
219 1 219 220
220 1 220 221
221 1 221 222
222 1 222 223
223 1 223 224
224 1 224 225
225 1 225 226
226 1 226 227
227 1 227 228
228 1 228 229
229 1 229 230
230 1 230 231
231 1 231 232
232 1 232 233
233 1 233 234
234 1 234 235
235 1 235 236
236 1 236 237
237 1 237 238
238 1 238 239
239 1 239 240
240 1 240 241
241 1 241 242
242 1 242 243
243 1 243 244
244 1 244 245
245 1 245 246
246 1 246 247
247 1 247 248
248 1 248 249
249 1 249 250
250 1 250 251
251 1 251 252
252 1 252 253
253 1 253 254
254 1 254 255
255 1 255 256
256 1 256 257
257 1 257 258
258 1 258 259
259 1 259 260
260 1 260 261
261 1 261 262
262 1 262 263
263 1 263 264
264 1 264 265
265 1 265 266
266 1 266 267
267 1 267 268
268 1 268 269
269 1 269 270
270 1 270 271
271 1 271 272
272 1 272 273
273 1 273 274
274 1 274 275
275 1 275 276
276 1 276 277
277 1 277 278
278 1 278 279
279 1 279 280
280 1 280 281
281 1 281 282
282 1 282 283
283 1 283 284
284 1 284 285
285 1 285 286
286 1 286 287
287 1 287 288
288 1 288 289
289 1 289 290
290 1 290 291
291 1 291 292
292 1 292 293
293 1 293 294
294 1 294 295
295 1 295 296
296 1 296 297
297 1 297 298
298 1 298 299
299 1 299 300
300 1 300 301
301 1 301 302
302 1 302 303
303 1 303 304
304 1 304 305
305 1 305 306
306 1 306 307
307 1 307 308
308 1 308 309
309 1 309 310
310 1 310 311
311 1 311 312
312 1 312 313
313 1 313 314
314 1 314 315
315 1 315 316
316 1 316 317
317 1 317 318
318 1 318 319
319 1 319 320
320 1 320 321
321 1 321 322
322 1 322 323
323 1 323 324
324 1 324 325
325 1 325 326
326 1 326 327
327 1 327 328
328 1 328 329
329 1 329 330
330 1 330 331
331 1 331 332
332 1 332 333
333 1 333 334
334 1 334 335
335 1 335 336
336 1 336 337
337 1 337 338
338 1 338 339
339 1 339 340
340 1 340 341
341 1 341 342
342 1 342 343
343 1 343 344
344 1 344 345
345 1 345 346
346 1 346 347
347 1 347 348
348 1 348 349
349 1 349 350
350 1 350 351
351 1 351 352
352 1 352 353
353 1 353 354
354 1 354 355
355 1 355 356
356 1 356 357
357 1 357 358
358 1 358 359
359 1 359 360
360 1 360 361
361 1 361 362
362 1 362 363
363 1 363 364
364 1 364 365
365 1 365 366
366 1 366 367
367 1 367 368
368 1 368 369
369 1 369 370
370 1 370 371
371 1 371 372
372 1 372 373
373 1 373 374
374 1 374 375
375 1 375 376
376 1 376 377
377 1 377 378
378 1 378 379
379 1 379 380
380 1 380 381
381 1 381 382
382 1 382 383
383 1 383 384
384 1 384 385
385 1 385 386
386 1 386 387
387 1 387 388
388 1 388 389
389 1 389 390
390 1 390 391
391 1 391 392
392 1 392 393
393 1 393 394
394 1 394 395
395 1 395 396
396 1 396 397
397 1 397 398
398 1 398 399
399 1 399 400
400 1 400 401
401 1 401 402
402 1 402 403
403 1 403 404
404 1 404 405
405 1 405 406
406 1 406 407
407 1 407 408
408 1 408 409
409 1 409 410
410 1 410 411
411 1 411 412
412 1 412 413
413 1 413 414
414 1 414 415
415 1 415 416
416 1 416 417
417 1 417 418
418 1 418 419
419 1 419 420
420 1 420 421
421 1 421 422
422 1 422 423
423 1 423 424
424 1 424 425
425 1 425 426
426 1 426 427
427 1 427 428
428 1 428 429
429 1 429 430
430 1 430 431
431 1 431 432
432 1 432 433
433 1 433 434
434 1 434 435
435 1 435 436
436 1 436 437
437 1 437 438
438 1 438 439
439 1 439 440
440 1 440 441
441 1 441 442
442 1 442 443
443 1 443 444
444 1 444 445
445 1 445 446
446 1 446 447
447 1 447 448
448 1 448 449
449 1 449 450
450 1 450 451
451 1 451 452
452 1 452 453
453 1 453 454
454 1 454 455
455 1 455 456
456 1 456 457
457 1 457 458
458 1 458 459
459 1 459 460
460 1 460 461
461 1 461 462
462 1 462 463
463 1 463 464
464 1 464 465
465 1 465 466
466 1 466 467
467 1 467 468
468 1 468 469
469 1 469 470
470 1 470 471
471 1 471 472
472 1 472 473
473 1 473 474
474 1 474 475
475 1 475 476
476 1 476 477
477 1 477 478
478 1 478 479
479 1 479 480
480 1 480 481
481 1 481 482
482 1 482 483
483 1 483 484
484 1 484 485
485 1 485 486
486 1 486 487
487 1 487 488
488 1 488 489
489 1 489 490
490 1 490 491
491 1 491 492
492 1 492 493
493 1 493 494
494 1 494 495
495 1 495 496
496 1 496 497
497 1 497 498
498 1 498 499
499 1 499 500
500 1 500 1
501 1 501 502
502 1 502 503
503 1 503 504
504 1 504 505
505 1 505 506
506 1 506 507
507 1 507 508
508 1 508 509
509 1 509 510
510 1 510 511
511 1 511 512
512 1 512 513
513 1 513 514
514 1 514 515
515 1 515 516
516 1 516 517
517 1 517 518
518 1 518 519
519 1 519 520
520 1 520 521
521 1 521 522
522 1 522 523
523 1 523 524
524 1 524 525
525 1 525 526
526 1 526 527
527 1 527 528
528 1 528 529
529 1 529 530
530 1 530 531
531 1 531 532
532 1 532 533
533 1 533 534
534 1 534 535
535 1 535 536
536 1 536 537
537 1 537 538
538 1 538 539
539 1 539 540
540 1 540 541
541 1 541 542
542 1 542 543
543 1 543 544
544 1 544 545
545 1 545 546
546 1 546 547
547 1 547 548
548 1 548 549
549 1 549 550
550 1 550 551
551 1 551 552
552 1 552 553
553 1 553 554
554 1 554 555
555 1 555 556
556 1 556 557
557 1 557 558
558 1 558 559
559 1 559 560
560 1 560 561
561 1 561 562
562 1 562 563
563 1 563 564
564 1 564 565
565 1 565 566
566 1 566 567
567 1 567 568
568 1 568 569
569 1 569 570
570 1 570 571
571 1 571 572
572 1 572 573
573 1 573 574
574 1 574 575
575 1 575 576
576 1 576 577
577 1 577 578
578 1 578 579
579 1 579 580
580 1 580 581
581 1 581 582
582 1 582 583
583 1 583 584
584 1 584 585
585 1 585 586
586 1 586 587
587 1 587 588
588 1 588 589
589 1 589 590
590 1 590 591
591 1 591 592
592 1 592 593
593 1 593 594
594 1 594 595
595 1 595 596
596 1 596 597
597 1 597 598
598 1 598 599
599 1 599 600
600 1 600 601
601 1 601 602
602 1 602 603
603 1 603 604
604 1 604 605
605 1 605 606
606 1 606 607
607 1 607 608
608 1 608 609
609 1 609 610
610 1 610 611
611 1 611 612
612 1 612 613
613 1 613 614
614 1 614 615
615 1 615 616
616 1 616 617
617 1 617 618
618 1 618 619
619 1 619 620
620 1 620 621
621 1 621 622
622 1 622 623
623 1 623 624
624 1 624 625
625 1 625 626
626 1 626 627
627 1 627 628
628 1 628 629
629 1 629 630
630 1 630 631
631 1 631 632
632 1 632 633
633 1 633 634
634 1 634 635
635 1 635 636
636 1 636 637
637 1 637 638
638 1 638 639
639 1 639 640
640 1 640 641
641 1 641 642
642 1 642 643
643 1 643 644
644 1 644 645
645 1 645 646
646 1 646 647
647 1 647 648
648 1 648 649
649 1 649 650
650 1 650 651
651 1 651 652
652 1 652 653
653 1 653 654
654 1 654 655
655 1 655 656
656 1 656 657
657 1 657 658
658 1 658 659
659 1 659 660
660 1 660 661
661 1 661 662
662 1 662 663
663 1 663 664
664 1 664 665
665 1 665 666
666 1 666 667
667 1 667 668
668 1 668 669
669 1 669 670
670 1 670 671
671 1 671 672
672 1 672 673
673 1 673 674
674 1 674 675
675 1 675 676
676 1 676 677
677 1 677 678
678 1 678 679
679 1 679 680
680 1 680 681
681 1 681 682
682 1 682 683
683 1 683 684
684 1 684 685
685 1 685 686
686 1 686 687
687 1 687 688
688 1 688 689
689 1 689 690
690 1 690 691
691 1 691 692
692 1 692 693
693 1 693 694
694 1 694 695
695 1 695 696
696 1 696 697
697 1 697 698
698 1 698 699
699 1 699 700
700 1 700 701
701 1 701 702
702 1 702 703
703 1 703 704
704 1 704 705
705 1 705 706
706 1 706 707
707 1 707 708
708 1 708 709
709 1 709 710
710 1 710 711
711 1 711 712
712 1 712 713
713 1 713 714
714 1 714 715
715 1 715 716
716 1 716 717
717 1 717 718
718 1 718 719
719 1 719 720
720 1 720 721
721 1 721 722
722 1 722 723
723 1 723 724
724 1 724 725
725 1 725 726
726 1 726 727
727 1 727 728
728 1 728 729
729 1 729 730
730 1 730 731
731 1 731 732
732 1 732 733
733 1 733 734
734 1 734 735
735 1 735 736
736 1 736 737
737 1 737 738
738 1 738 739
739 1 739 740
740 1 740 741
741 1 741 742
742 1 742 743
743 1 743 744
744 1 744 745
745 1 745 746
746 1 746 747
747 1 747 748
748 1 748 749
749 1 749 750
750 1 750 751
751 1 751 752
752 1 752 753
753 1 753 754
754 1 754 755
755 1 755 756
756 1 756 757
757 1 757 758
758 1 758 759
759 1 759 760
760 1 760 761
761 1 761 762
762 1 762 763
763 1 763 764
764 1 764 765
765 1 765 766
766 1 766 767
767 1 767 768
768 1 768 769
769 1 769 770
770 1 770 771
771 1 771 772
772 1 772 773
773 1 773 774
774 1 774 775
775 1 775 776
776 1 776 777
777 1 777 778
778 1 778 779
779 1 779 780
780 1 780 781
781 1 781 782
782 1 782 783
783 1 783 784
784 1 784 785
785 1 785 786
786 1 786 787
787 1 787 788
788 1 788 789
789 1 789 790
790 1 790 791
791 1 791 792
792 1 792 793
793 1 793 794
794 1 794 795
795 1 795 796
796 1 796 797
797 1 797 798
798 1 798 799
799 1 799 800
800 1 800 801
801 1 801 802
802 1 802 803
803 1 803 804
804 1 804 805
805 1 805 806
806 1 806 807
807 1 807 808
808 1 808 809
809 1 809 810
810 1 810 811
811 1 811 812
812 1 812 813
813 1 813 814
814 1 814 815
815 1 815 816
816 1 816 817
817 1 817 818
818 1 818 819
819 1 819 820
820 1 820 821
821 1 821 822
822 1 822 823
823 1 823 824
824 1 824 825
825 1 825 826
826 1 826 827
827 1 827 828
828 1 828 829
829 1 829 830
830 1 830 831
831 1 831 832
832 1 832 833
833 1 833 834
834 1 834 835
835 1 835 836
836 1 836 837
837 1 837 838
838 1 838 839
839 1 839 840
840 1 840 841
841 1 841 842
842 1 842 843
843 1 843 844
844 1 844 845
845 1 845 846
846 1 846 847
847 1 847 848
848 1 848 849
849 1 849 850
850 1 850 851
851 1 851 852
852 1 852 853
853 1 853 854
854 1 854 855
855 1 855 856
856 1 856 857
857 1 857 858
858 1 858 859
859 1 859 860
860 1 860 861
861 1 861 862
862 1 862 863
863 1 863 864
864 1 864 865
865 1 865 866
866 1 866 867
867 1 867 868
868 1 868 869
869 1 869 870
870 1 870 871
871 1 871 872
872 1 872 873
873 1 873 874
874 1 874 875
875 1 875 876
876 1 876 877
877 1 877 878
878 1 878 879
879 1 879 880
880 1 880 881
881 1 881 882
882 1 882 883
883 1 883 884
884 1 884 885
885 1 885 886
886 1 886 887
887 1 887 888
888 1 888 889
889 1 889 890
890 1 890 891
891 1 891 892
892 1 892 893
893 1 893 894
894 1 894 895
895 1 895 896
896 1 896 897
897 1 897 898
898 1 898 899
899 1 899 900
900 1 900 901
901 1 901 902
902 1 902 903
903 1 903 904
904 1 904 905
905 1 905 906
906 1 906 907
907 1 907 908
908 1 908 909
909 1 909 910
910 1 910 911
911 1 911 912
912 1 912 913
913 1 913 914
914 1 914 915
915 1 915 916
916 1 916 917
917 1 917 918
918 1 918 919
919 1 919 920
920 1 920 921
921 1 921 922
922 1 922 923
923 1 923 924
924 1 924 925
925 1 925 926
926 1 926 927
927 1 927 928
928 1 928 929
929 1 929 930
930 1 930 931
931 1 931 932
932 1 932 933
933 1 933 934
934 1 934 935
935 1 935 936
936 1 936 937
937 1 937 938
938 1 938 939
939 1 939 940
940 1 940 941
941 1 941 942
942 1 942 943
943 1 943 944
944 1 944 945
945 1 945 946
946 1 946 947
947 1 947 948
948 1 948 949
949 1 949 950
950 1 950 951
951 1 951 952
952 1 952 953
953 1 953 954
954 1 954 955
955 1 955 956
956 1 956 957
957 1 957 958
958 1 958 959
959 1 959 960
960 1 960 961
961 1 961 962
962 1 962 963
963 1 963 964
964 1 964 965
965 1 965 966
966 1 966 967
967 1 967 968
968 1 968 969
969 1 969 970
970 1 970 971
971 1 971 972
972 1 972 973
973 1 973 974
974 1 974 975
975 1 975 976
976 1 976 977
977 1 977 978
978 1 978 979
979 1 979 980
980 1 980 981
981 1 981 982
982 1 982 983
983 1 983 984
984 1 984 985
985 1 985 986
986 1 986 987
987 1 987 988
988 1 988 989
989 1 989 990
990 1 990 991
991 1 991 992
992 1 992 993
993 1 993 994
994 1 994 995
995 1 995 996
996 1 996 997
997 1 997 998
998 1 998 999
999 1 999 1000
1000 1 1000 501

Angles

1 1 1 2 3
2 1 2 3 4
3 1 3 4 5
4 1 4 5 6
5 1 5 6 7
6 1 6 7 8
7 1 7 8 9
8 1 8 9 10
9 1 9 10 11
10 1 10 11 12
11 1 11 12 13
12 1 12 13 14
13 1 13 14 15
14 1 14 15 16
15 1 15 16 17
16 1 16 17 18
17 1 17 18 19
18 1 18 19 20
19 1 19 20 21
20 1 20 21 22
21 1 21 22 23
22 1 22 23 24
23 1 23 24 25
24 1 24 25 26
25 1 25 26 27
26 1 26 27 28
27 1 27 28 29
28 1 28 29 30
29 1 29 30 31
30 1 30 31 32
31 1 31 32 33
32 1 32 33 34
33 1 33 34 35
34 1 34 35 36
35 1 35 36 37
36 1 36 37 38
37 1 37 38 39
38 1 38 39 40
39 1 39 40 41
40 1 40 41 42
41 1 41 42 43
42 1 42 43 44
43 1 43 44 45
44 1 44 45 46
45 1 45 46 47
46 1 46 47 48
47 1 47 48 49
48 1 48 49 50
49 1 49 50 51
50 1 50 51 52
51 1 51 52 53
52 1 52 53 54
53 1 53 54 55
54 1 54 55 56
55 1 55 56 57
56 1 56 57 58
57 1 57 58 59
58 1 58 59 60
59 1 59 60 61
60 1 60 61 62
61 1 61 62 63
62 1 62 63 64
63 1 63 64 65
64 1 64 65 66
65 1 65 66 67
66 1 66 67 68
67 1 67 68 69
68 1 68 69 70
69 1 69 70 71
70 1 70 71 72
71 1 71 72 73
72 1 72 73 74
73 1 73 74 75
74 1 74 75 76
75 1 75 76 77
76 1 76 77 78
77 1 77 78 79
78 1 78 79 80
79 1 79 80 81
80 1 80 81 82
81 1 81 82 83
82 1 82 83 84
83 1 83 84 85
84 1 84 85 86
85 1 85 86 87
86 1 86 87 88
87 1 87 88 89
88 1 88 89 90
89 1 89 90 91
90 1 90 91 92
91 1 91 92 93
92 1 92 93 94
93 1 93 94 95
94 1 94 95 96
95 1 95 96 97
96 1 96 97 98
97 1 97 98 99
98 1 98 99 100
99 1 99 100 101
100 1 100 101 102
101 1 101 102 103
102 1 102 103 104
103 1 103 104 105
104 1 104 105 106
105 1 105 106 107
106 1 106 107 108
107 1 107 108 109
108 1 108 109 110
109 1 109 110 111
110 1 110 111 112
111 1 111 112 113
112 1 112 113 114
113 1 113 114 115
114 1 114 115 116
115 1 115 116 117
116 1 116 117 118
117 1 117 118 119
118 1 118 119 120
119 1 119 120 121
120 1 120 121 122
121 1 121 122 123
122 1 122 123 124
123 1 123 124 125
124 1 124 125 126
125 1 125 126 127
126 1 126 127 128
127 1 127 128 129
128 1 128 129 130
129 1 129 130 131
130 1 130 131 132
131 1 131 132 133
132 1 132 133 134
133 1 133 134 135
134 1 134 135 136
135 1 135 136 137
136 1 136 137 138
137 1 137 138 139
138 1 138 139 140
139 1 139 140 141
140 1 140 141 142
141 1 141 142 143
142 1 142 143 144
143 1 143 144 145
144 1 144 145 146
145 1 145 146 147
146 1 146 147 148
147 1 147 148 149
148 1 148 149 150
149 1 149 150 151
150 1 150 151 152
151 1 151 152 153
152 1 152 153 154
153 1 153 154 155
154 1 154 155 156
155 1 155 156 157
156 1 156 157 158
157 1 157 158 159
158 1 158 159 160
159 1 159 160 161
160 1 160 161 162
161 1 161 162 163
162 1 162 163 164
163 1 163 164 165
164 1 164 165 166
165 1 165 166 167
166 1 166 167 168
167 1 167 168 169
168 1 168 169 170
169 1 169 170 171
170 1 170 171 172
171 1 171 172 173
172 1 172 173 174
173 1 173 174 175
174 1 174 175 176
175 1 175 176 177
176 1 176 177 178
177 1 177 178 179
178 1 178 179 180
179 1 179 180 181
180 1 180 181 182
181 1 181 182 183
182 1 182 183 184
183 1 183 184 185
184 1 184 185 186
185 1 185 186 187
186 1 186 187 188
187 1 187 188 189
188 1 188 189 190
189 1 189 190 191
190 1 190 191 192
191 1 191 192 193
192 1 192 193 194
193 1 193 194 195
194 1 194 195 196
195 1 195 196 197
196 1 196 197 198
197 1 197 198 199
198 1 198 199 200
199 1 199 200 201
200 1 200 201 202
201 1 201 202 203
202 1 202 203 204
203 1 203 204 205
204 1 204 205 206
205 1 205 206 207
206 1 206 207 208
207 1 207 208 209
208 1 208 209 210
209 1 209 210 211
210 1 210 211 212
211 1 211 212 213
212 1 212 213 214
213 1 213 214 215
214 1 214 215 216
215 1 215 216 217
216 1 216 217 218
217 1 217 218 219
218 1 218 219 220
219 1 219 220 221
220 1 220 221 222
221 1 221 222 223
222 1 222 223 224
223 1 223 224 225
224 1 224 225 226
225 1 225 226 227
226 1 226 227 228
227 1 227 228 229
228 1 228 229 230
229 1 229 230 231
230 1 230 231 232
231 1 231 232 233
232 1 232 233 234
233 1 233 234 235
234 1 234 235 236
235 1 235 236 237
236 1 236 237 238
237 1 237 238 239
238 1 238 239 240
239 1 239 240 241
240 1 240 241 242
241 1 241 242 243
242 1 242 243 244
243 1 243 244 245
244 1 244 245 246
245 1 245 246 247
246 1 246 247 248
247 1 247 248 249
248 1 248 249 250
249 1 249 250 251
250 1 250 251 252
251 1 251 252 253
252 1 252 253 254
253 1 253 254 255
254 1 254 255 256
255 1 255 256 257
256 1 256 257 258
257 1 257 258 259
258 1 258 259 260
259 1 259 260 261
260 1 260 261 262
261 1 261 262 263
262 1 262 263 264
263 1 263 264 265
264 1 264 265 266
265 1 265 266 267
266 1 266 267 268
267 1 267 268 269
268 1 268 269 270
269 1 269 270 271
270 1 270 271 272
271 1 271 272 273
272 1 272 273 274
273 1 273 274 275
274 1 274 275 276
275 1 275 276 277
276 1 276 277 278
277 1 277 278 279
278 1 278 279 280
279 1 279 280 281
280 1 280 281 282
281 1 281 282 283
282 1 282 283 284
283 1 283 284 285
284 1 284 285 286
285 1 285 286 287
286 1 286 287 288
287 1 287 288 289
288 1 288 289 290
289 1 289 290 291
290 1 290 291 292
291 1 291 292 293
292 1 292 293 294
293 1 293 294 295
294 1 294 295 296
295 1 295 296 297
296 1 296 297 298
297 1 297 298 299
298 1 298 299 300
299 1 299 300 301
300 1 300 301 302
301 1 301 302 303
302 1 302 303 304
303 1 303 304 305
304 1 304 305 306
305 1 305 306 307
306 1 306 307 308
307 1 307 308 309
308 1 308 309 310
309 1 309 310 311
310 1 310 311 312
311 1 311 312 313
312 1 312 313 314
313 1 313 314 315
314 1 314 315 316
315 1 315 316 317
316 1 316 317 318
317 1 317 318 319
318 1 318 319 320
319 1 319 320 321
320 1 320 321 322
321 1 321 322 323
322 1 322 323 324
323 1 323 324 325
324 1 324 325 326
325 1 325 326 327
326 1 326 327 328
327 1 327 328 329
328 1 328 329 330
329 1 329 330 331
330 1 330 331 332
331 1 331 332 333
332 1 332 333 334
333 1 333 334 335
334 1 334 335 336
335 1 335 336 337
336 1 336 337 338
337 1 337 338 339
338 1 338 339 340
339 1 339 340 341
340 1 340 341 342
341 1 341 342 343
342 1 342 343 344
343 1 343 344 345
344 1 344 345 346
345 1 345 346 347
346 1 346 347 348
347 1 347 348 349
348 1 348 349 350
349 1 349 350 351
350 1 350 351 352
351 1 351 352 353
352 1 352 353 354
353 1 353 354 355
354 1 354 355 356
355 1 355 356 357
356 1 356 357 358
357 1 357 358 359
358 1 358 359 360
359 1 359 360 361
360 1 360 361 362
361 1 361 362 363
362 1 362 363 364
363 1 363 364 365
364 1 364 365 366
365 1 365 366 367
366 1 366 367 368
367 1 367 368 369
368 1 368 369 370
369 1 369 370 371
370 1 370 371 372
371 1 371 372 373
372 1 372 373 374
373 1 373 374 375
374 1 374 375 376
375 1 375 376 377
376 1 376 377 378
377 1 377 378 379
378 1 378 379 380
379 1 379 380 381
380 1 380 381 382
381 1 381 382 383
382 1 382 383 384
383 1 383 384 385
384 1 384 385 386
385 1 385 386 387
386 1 386 387 388
387 1 387 388 389
388 1 388 389 390
389 1 389 390 391
390 1 390 391 392
391 1 391 392 393
392 1 392 393 394
393 1 393 394 395
394 1 394 395 396
395 1 395 396 397
396 1 396 397 398
397 1 397 398 399
398 1 398 399 400
399 1 399 400 401
400 1 400 401 402
401 1 401 402 403
402 1 402 403 404
403 1 403 404 405
404 1 404 405 406
405 1 405 406 407
406 1 406 407 408
407 1 407 408 409
408 1 408 409 410
409 1 409 410 411
410 1 410 411 412
411 1 411 412 413
412 1 412 413 414
413 1 413 414 415
414 1 414 415 416
415 1 415 416 417
416 1 416 417 418
417 1 417 418 419
418 1 418 419 420
419 1 419 420 421
420 1 420 421 422
421 1 421 422 423
422 1 422 423 424
423 1 423 424 425
424 1 424 425 426
425 1 425 426 427
426 1 426 427 428
427 1 427 428 429
428 1 428 429 430
429 1 429 430 431
430 1 430 431 432
431 1 431 432 433
432 1 432 433 434
433 1 433 434 435
434 1 434 435 436
435 1 435 436 437
436 1 436 437 438
437 1 437 438 439
438 1 438 439 440
439 1 439 440 441
440 1 440 441 442
441 1 441 442 443
442 1 442 443 444
443 1 443 444 445
444 1 444 445 446
445 1 445 446 447
446 1 446 447 448
447 1 447 448 449
448 1 448 449 450
449 1 449 450 451
450 1 450 451 452
451 1 451 452 453
452 1 452 453 454
453 1 453 454 455
454 1 454 455 456
455 1 455 456 457
456 1 456 457 458
457 1 457 458 459
458 1 458 459 460
459 1 459 460 461
460 1 460 461 462
461 1 461 462 463
462 1 462 463 464
463 1 463 464 465
464 1 464 465 466
465 1 465 466 467
466 1 466 467 468
467 1 467 468 469
468 1 468 469 470
469 1 469 470 471
470 1 470 471 472
471 1 471 472 473
472 1 472 473 474
473 1 473 474 475
474 1 474 475 476
475 1 475 476 477
476 1 476 477 478
477 1 477 478 479
478 1 478 479 480
479 1 479 480 481
480 1 480 481 482
481 1 481 482 483
482 1 482 483 484
483 1 483 484 485
484 1 484 485 486
485 1 485 486 487
486 1 486 487 488
487 1 487 488 489
488 1 488 489 490
489 1 489 490 491
490 1 490 491 492
491 1 491 492 493
492 1 492 493 494
493 1 493 494 495
494 1 494 495 496
495 1 495 496 497
496 1 496 497 498
497 1 497 498 499
498 1 498 499 500
499 1 499 500 1
500 1 500 1 2
501 1 501 502 503
502 1 502 503 504
503 1 503 504 505
504 1 504 505 506
505 1 505 506 507
506 1 506 507 508
507 1 507 508 509
508 1 508 509 510
509 1 509 510 511
510 1 510 511 512
511 1 511 512 513
512 1 512 513 514
513 1 513 514 515
514 1 514 515 516
515 1 515 516 517
516 1 516 517 518
517 1 517 518 519
518 1 518 519 520
519 1 519 520 521
520 1 520 521 522
521 1 521 522 523
522 1 522 523 524
523 1 523 524 525
524 1 524 525 526
525 1 525 526 527
526 1 526 527 528
527 1 527 528 529
528 1 528 529 530
529 1 529 530 531
530 1 530 531 532
531 1 531 532 533
532 1 532 533 534
533 1 533 534 535
534 1 534 535 536
535 1 535 536 537
536 1 536 537 538
537 1 537 538 539
538 1 538 539 540
539 1 539 540 541
540 1 540 541 542
541 1 541 542 543
542 1 542 543 544
543 1 543 544 545
544 1 544 545 546
545 1 545 546 547
546 1 546 547 548
547 1 547 548 549
548 1 548 549 550
549 1 549 550 551
550 1 550 551 552
551 1 551 552 553
552 1 552 553 554
553 1 553 554 555
554 1 554 555 556
555 1 555 556 557
556 1 556 557 558
557 1 557 558 559
558 1 558 559 560
559 1 559 560 561
560 1 560 561 562
561 1 561 562 563
562 1 562 563 564
563 1 563 564 565
564 1 564 565 566
565 1 565 566 567
566 1 566 567 568
567 1 567 568 569
568 1 568 569 570
569 1 569 570 571
570 1 570 571 572
571 1 571 572 573
572 1 572 573 574
573 1 573 574 575
574 1 574 575 576
575 1 575 576 577
576 1 576 577 578
577 1 577 578 579
578 1 578 579 580
579 1 579 580 581
580 1 580 581 582
581 1 581 582 583
582 1 582 583 584
583 1 583 584 585
584 1 584 585 586
585 1 585 586 587
586 1 586 587 588
587 1 587 588 589
588 1 588 589 590
589 1 589 590 591
590 1 590 591 592
591 1 591 592 593
592 1 592 593 594
593 1 593 594 595
594 1 594 595 596
595 1 595 596 597
596 1 596 597 598
597 1 597 598 599
598 1 598 599 600
599 1 599 600 601
600 1 600 601 602
601 1 601 602 603
602 1 602 603 604
603 1 603 604 605
604 1 604 605 606
605 1 605 606 607
606 1 606 607 608
607 1 607 608 609
608 1 608 609 610
609 1 609 610 611
610 1 610 611 612
611 1 611 612 613
612 1 612 613 614
613 1 613 614 615
614 1 614 615 616
615 1 615 616 617
616 1 616 617 618
617 1 617 618 619
618 1 618 619 620
619 1 619 620 621
620 1 620 621 622
621 1 621 622 623
622 1 622 623 624
623 1 623 624 625
624 1 624 625 626
625 1 625 626 627
626 1 626 627 628
627 1 627 628 629
628 1 628 629 630
629 1 629 630 631
630 1 630 631 632
631 1 631 632 633
632 1 632 633 634
633 1 633 634 635
634 1 634 635 636
635 1 635 636 637
636 1 636 637 638
637 1 637 638 639
638 1 638 639 640
639 1 639 640 641
640 1 640 641 642
641 1 641 642 643
642 1 642 643 644
643 1 643 644 645
644 1 644 645 646
645 1 645 646 647
646 1 646 647 648
647 1 647 648 649
648 1 648 649 650
649 1 649 650 651
650 1 650 651 652
651 1 651 652 653
652 1 652 653 654
653 1 653 654 655
654 1 654 655 656
655 1 655 656 657
656 1 656 657 658
657 1 657 658 659
658 1 658 659 660
659 1 659 660 661
660 1 660 661 662
661 1 661 662 663
662 1 662 663 664
663 1 663 664 665
664 1 664 665 666
665 1 665 666 667
666 1 666 667 668
667 1 667 668 669
668 1 668 669 670
669 1 669 670 671
670 1 670 671 672
671 1 671 672 673
672 1 672 673 674
673 1 673 674 675
674 1 674 675 676
675 1 675 676 677
676 1 676 677 678
677 1 677 678 679
678 1 678 679 680
679 1 679 680 681
680 1 680 681 682
681 1 681 682 683
682 1 682 683 684
683 1 683 684 685
684 1 684 685 686
685 1 685 686 687
686 1 686 687 688
687 1 687 688 689
688 1 688 689 690
689 1 689 690 691
690 1 690 691 692
691 1 691 692 693
692 1 692 693 694
693 1 693 694 695
694 1 694 695 696
695 1 695 696 697
696 1 696 697 698
697 1 697 698 699
698 1 698 699 700
699 1 699 700 701
700 1 700 701 702
701 1 701 702 703
702 1 702 703 704
703 1 703 704 705
704 1 704 705 706
705 1 705 706 707
706 1 706 707 708
707 1 707 708 709
708 1 708 709 710
709 1 709 710 711
710 1 710 711 712
711 1 711 712 713
712 1 712 713 714
713 1 713 714 715
714 1 714 715 716
715 1 715 716 717
716 1 716 717 718
717 1 717 718 719
718 1 718 719 720
719 1 719 720 721
720 1 720 721 722
721 1 721 722 723
722 1 722 723 724
723 1 723 724 725
724 1 724 725 726
725 1 725 726 727
726 1 726 727 728
727 1 727 728 729
728 1 728 729 730
729 1 729 730 731
730 1 730 731 732
731 1 731 732 733
732 1 732 733 734
733 1 733 734 735
734 1 734 735 736
735 1 735 736 737
736 1 736 737 738
737 1 737 738 739
738 1 738 739 740
739 1 739 740 741
740 1 740 741 742
741 1 741 742 743
742 1 742 743 744
743 1 743 744 745
744 1 744 745 746
745 1 745 746 747
746 1 746 747 748
747 1 747 748 749
748 1 748 749 750
749 1 749 750 751
750 1 750 751 752
751 1 751 752 753
752 1 752 753 754
753 1 753 754 755
754 1 754 755 756
755 1 755 756 757
756 1 756 757 758
757 1 757 758 759
758 1 758 759 760
759 1 759 760 761
760 1 760 761 762
761 1 761 762 763
762 1 762 763 764
763 1 763 764 765
764 1 764 765 766
765 1 765 766 767
766 1 766 767 768
767 1 767 768 769
768 1 768 769 770
769 1 769 770 771
770 1 770 771 772
771 1 771 772 773
772 1 772 773 774
773 1 773 774 775
774 1 774 775 776
775 1 775 776 777
776 1 776 777 778
777 1 777 778 779
778 1 778 779 780
779 1 779 780 781
780 1 780 781 782
781 1 781 782 783
782 1 782 783 784
783 1 783 784 785
784 1 784 785 786
785 1 785 786 787
786 1 786 787 788
787 1 787 788 789
788 1 788 789 790
789 1 789 790 791
790 1 790 791 792
791 1 791 792 793
792 1 792 793 794
793 1 793 794 795
794 1 794 795 796
795 1 795 796 797
796 1 796 797 798
797 1 797 798 799
798 1 798 799 800
799 1 799 800 801
800 1 800 801 802
801 1 801 802 803
802 1 802 803 804
803 1 803 804 805
804 1 804 805 806
805 1 805 806 807
806 1 806 807 808
807 1 807 808 809
808 1 808 809 810
809 1 809 810 811
810 1 810 811 812
811 1 811 812 813
812 1 812 813 814
813 1 813 814 815
814 1 814 815 816
815 1 815 816 817
816 1 816 817 818
817 1 817 818 819
818 1 818 819 820
819 1 819 820 821
820 1 820 821 822
821 1 821 822 823
822 1 822 823 824
823 1 823 824 825
824 1 824 825 826
825 1 825 826 827
826 1 826 827 828
827 1 827 828 829
828 1 828 829 830
829 1 829 830 831
830 1 830 831 832
831 1 831 832 833
832 1 832 833 834
833 1 833 834 835
834 1 834 835 836
835 1 835 836 837
836 1 836 837 838
837 1 837 838 839
838 1 838 839 840
839 1 839 840 841
840 1 840 841 842
841 1 841 842 843
842 1 842 843 844
843 1 843 844 845
844 1 844 845 846
845 1 845 846 847
846 1 846 847 848
847 1 847 848 849
848 1 848 849 850
849 1 849 850 851
850 1 850 851 852
851 1 851 852 853
852 1 852 853 854
853 1 853 854 855
854 1 854 855 856
855 1 855 856 857
856 1 856 857 858
857 1 857 858 859
858 1 858 859 860
859 1 859 860 861
860 1 860 861 862
861 1 861 862 863
862 1 862 863 864
863 1 863 864 865
864 1 864 865 866
865 1 865 866 867
866 1 866 867 868
867 1 867 868 869
868 1 868 869 870
869 1 869 870 871
870 1 870 871 872
871 1 871 872 873
872 1 872 873 874
873 1 873 874 875
874 1 874 875 876
875 1 875 876 877
876 1 876 877 878
877 1 877 878 879
878 1 878 879 880
879 1 879 880 881
880 1 880 881 882
881 1 881 882 883
882 1 882 883 884
883 1 883 884 885
884 1 884 885 886
885 1 885 886 887
886 1 886 887 888
887 1 887 888 889
888 1 888 889 890
889 1 889 890 891
890 1 890 891 892
891 1 891 892 893
892 1 892 893 894
893 1 893 894 895
894 1 894 895 896
895 1 895 896 897
896 1 896 897 898
897 1 897 898 899
898 1 898 899 900
899 1 899 900 901
900 1 900 901 902
901 1 901 902 903
902 1 902 903 904
903 1 903 904 905
904 1 904 905 906
905 1 905 906 907
906 1 906 907 908
907 1 907 908 909
908 1 908 909 910
909 1 909 910 911
910 1 910 911 912
911 1 911 912 913
912 1 912 913 914
913 1 913 914 915
914 1 914 915 916
915 1 915 916 917
916 1 916 917 918
917 1 917 918 919
918 1 918 919 920
919 1 919 920 921
920 1 920 921 922
921 1 921 922 923
922 1 922 923 924
923 1 923 924 925
924 1 924 925 926
925 1 925 926 927
926 1 926 927 928
927 1 927 928 929
928 1 928 929 930
929 1 929 930 931
930 1 930 931 932
931 1 931 932 933
932 1 932 933 934
933 1 933 934 935
934 1 934 935 936
935 1 935 936 937
936 1 936 937 938
937 1 937 938 939
938 1 938 939 940
939 1 939 940 941
940 1 940 941 942
941 1 941 942 943
942 1 942 943 944
943 1 943 944 945
944 1 944 945 946
945 1 945 946 947
946 1 946 947 948
947 1 947 948 949
948 1 948 949 950
949 1 949 950 951
950 1 950 951 952
951 1 951 952 953
952 1 952 953 954
953 1 953 954 955
954 1 954 955 956
955 1 955 956 957
956 1 956 957 958
957 1 957 958 959
958 1 958 959 960
959 1 959 960 961
960 1 960 961 962
961 1 961 962 963
962 1 962 963 964
963 1 963 964 965
964 1 964 965 966
965 1 965 966 967
966 1 966 967 968
967 1 967 968 969
968 1 968 969 970
969 1 969 970 971
970 1 970 971 972
971 1 971 972 973
972 1 972 973 974
973 1 973 974 975
974 1 974 975 976
975 1 975 976 977
976 1 976 977 978
977 1 977 978 979
978 1 978 979 980
979 1 979 980 981
980 1 980 981 982
981 1 981 982 983
982 1 982 983 984
983 1 983 984 985
984 1 984 985 986
985 1 985 986 987
986 1 986 987 988
987 1 987 988 989
988 1 988 989 990
989 1 989 990 991
990 1 990 991 992
991 1 991 992 993
992 1 992 993 994
993 1 993 994 995
994 1 994 995 996
995 1 995 996 997
996 1 996 997 998
997 1 997 998 999
998 1 998 999 1000
999 1 999 1000 501
1000 1 1000 501 502
